modelsim/dump.vcd
$date
	Wed Mar 20 10:14:30 2024
$end
$version
	ModelSim Version 10.1c
$end
$timescale
	1ns
$end
$scope module tb_L1_D_controller $end
$var reg 1 ! clk $end
$var reg 1 " nrst $end
$var reg 32 # address [31:0] $end
$var reg 1 $ read_C_L1 $end
$var reg 1 % write_C_L1 $end
$var reg 1 & flush $end
$var reg 1 ' ready_L2_L1 $end
$var wire 1 ( stall $end
$var wire 1 ) refill $end
$var wire 1 * update $end
$var wire 1 + read_L1_L2 $end
$var wire 1 , write_L1_L2 $end
$var integer 32 - i $end
$var integer 32 . j $end
$var integer 32 / EXIT $end
$var reg 3 0 test_state [2:0] $end
$scope begin init $end
$upscope $end
$scope begin test $end
$upscope $end
$scope module u_L1_D_controller $end
$var parameter 2 1 S_IDLE $end
$var parameter 2 2 S_COMPARE $end
$var parameter 2 3 S_WRITE_BACK $end
$var parameter 2 4 S_ALLOCATE $end
$var wire 1 5 clk $end
$var wire 1 6 nrst $end
$var wire 1 7 tag [19] $end
$var wire 1 8 tag [18] $end
$var wire 1 9 tag [17] $end
$var wire 1 : tag [16] $end
$var wire 1 ; tag [15] $end
$var wire 1 < tag [14] $end
$var wire 1 = tag [13] $end
$var wire 1 > tag [12] $end
$var wire 1 ? tag [11] $end
$var wire 1 @ tag [10] $end
$var wire 1 A tag [9] $end
$var wire 1 B tag [8] $end
$var wire 1 C tag [7] $end
$var wire 1 D tag [6] $end
$var wire 1 E tag [5] $end
$var wire 1 F tag [4] $end
$var wire 1 G tag [3] $end
$var wire 1 H tag [2] $end
$var wire 1 I tag [1] $end
$var wire 1 J tag [0] $end
$var wire 1 K index [5] $end
$var wire 1 L index [4] $end
$var wire 1 M index [3] $end
$var wire 1 N index [2] $end
$var wire 1 O index [1] $end
$var wire 1 P index [0] $end
$var wire 1 Q read_C_L1 $end
$var wire 1 R flush $end
$var wire 1 S ready_L2_L1 $end
$var wire 1 T write_C_L1 $end
$var wire 1 ( stall $end
$var wire 1 ) refill $end
$var wire 1 U update $end
$var wire 1 + read_L1_L2 $end
$var wire 1 , write_L1_L2 $end
$var reg 64 V valid [63:0] $end
$var reg 64 W dirty [63:0] $end
$var reg 2 X state [1:0] $end
$var reg 2 Y next_state [1:0] $end
$var reg 1 Z miss $end
$var reg 1 [ hit $end
$var reg 1 \ read_C_L1_reg $end
$var reg 1 ] refill_reg $end
$var reg 1 ^ update_reg $end
$var reg 1 _ read_L1_L2_reg $end
$var reg 1 ` write_L1_L2_reg $end
$scope begin genblk1[63] $end
$var parameter 32 a i $end
$upscope $end
$scope begin genblk1[62] $end
$var parameter 32 b i $end
$upscope $end
$scope begin genblk1[61] $end
$var parameter 32 c i $end
$upscope $end
$scope begin genblk1[60] $end
$var parameter 32 d i $end
$upscope $end
$scope begin genblk1[59] $end
$var parameter 32 e i $end
$upscope $end
$scope begin genblk1[58] $end
$var parameter 32 f i $end
$upscope $end
$scope begin genblk1[57] $end
$var parameter 32 g i $end
$upscope $end
$scope begin genblk1[56] $end
$var parameter 32 h i $end
$upscope $end
$scope begin genblk1[55] $end
$var parameter 32 i i $end
$upscope $end
$scope begin genblk1[54] $end
$var parameter 32 j i $end
$upscope $end
$scope begin genblk1[53] $end
$var parameter 32 k i $end
$upscope $end
$scope begin genblk1[52] $end
$var parameter 32 l i $end
$upscope $end
$scope begin genblk1[51] $end
$var parameter 32 m i $end
$upscope $end
$scope begin genblk1[50] $end
$var parameter 32 n i $end
$upscope $end
$scope begin genblk1[49] $end
$var parameter 32 o i $end
$upscope $end
$scope begin genblk1[48] $end
$var parameter 32 p i $end
$upscope $end
$scope begin genblk1[47] $end
$var parameter 32 q i $end
$upscope $end
$scope begin genblk1[46] $end
$var parameter 32 r i $end
$upscope $end
$scope begin genblk1[45] $end
$var parameter 32 s i $end
$upscope $end
$scope begin genblk1[44] $end
$var parameter 32 t i $end
$upscope $end
$scope begin genblk1[43] $end
$var parameter 32 u i $end
$upscope $end
$scope begin genblk1[42] $end
$var parameter 32 v i $end
$upscope $end
$scope begin genblk1[41] $end
$var parameter 32 w i $end
$upscope $end
$scope begin genblk1[40] $end
$var parameter 32 x i $end
$upscope $end
$scope begin genblk1[39] $end
$var parameter 32 y i $end
$upscope $end
$scope begin genblk1[38] $end
$var parameter 32 z i $end
$upscope $end
$scope begin genblk1[37] $end
$var parameter 32 { i $end
$upscope $end
$scope begin genblk1[36] $end
$var parameter 32 | i $end
$upscope $end
$scope begin genblk1[35] $end
$var parameter 32 } i $end
$upscope $end
$scope begin genblk1[34] $end
$var parameter 32 ~ i $end
$upscope $end
$scope begin genblk1[33] $end
$var parameter 32 !! i $end
$upscope $end
$scope begin genblk1[32] $end
$var parameter 32 "! i $end
$upscope $end
$scope begin genblk1[31] $end
$var parameter 32 #! i $end
$upscope $end
$scope begin genblk1[30] $end
$var parameter 32 $! i $end
$upscope $end
$scope begin genblk1[29] $end
$var parameter 32 %! i $end
$upscope $end
$scope begin genblk1[28] $end
$var parameter 32 &! i $end
$upscope $end
$scope begin genblk1[27] $end
$var parameter 32 '! i $end
$upscope $end
$scope begin genblk1[26] $end
$var parameter 32 (! i $end
$upscope $end
$scope begin genblk1[25] $end
$var parameter 32 )! i $end
$upscope $end
$scope begin genblk1[24] $end
$var parameter 32 *! i $end
$upscope $end
$scope begin genblk1[23] $end
$var parameter 32 +! i $end
$upscope $end
$scope begin genblk1[22] $end
$var parameter 32 ,! i $end
$upscope $end
$scope begin genblk1[21] $end
$var parameter 32 -! i $end
$upscope $end
$scope begin genblk1[20] $end
$var parameter 32 .! i $end
$upscope $end
$scope begin genblk1[19] $end
$var parameter 32 /! i $end
$upscope $end
$scope begin genblk1[18] $end
$var parameter 32 0! i $end
$upscope $end
$scope begin genblk1[17] $end
$var parameter 32 1! i $end
$upscope $end
$scope begin genblk1[16] $end
$var parameter 32 2! i $end
$upscope $end
$scope begin genblk1[15] $end
$var parameter 32 3! i $end
$upscope $end
$scope begin genblk1[14] $end
$var parameter 32 4! i $end
$upscope $end
$scope begin genblk1[13] $end
$var parameter 32 5! i $end
$upscope $end
$scope begin genblk1[12] $end
$var parameter 32 6! i $end
$upscope $end
$scope begin genblk1[11] $end
$var parameter 32 7! i $end
$upscope $end
$scope begin genblk1[10] $end
$var parameter 32 8! i $end
$upscope $end
$scope begin genblk1[9] $end
$var parameter 32 9! i $end
$upscope $end
$scope begin genblk1[8] $end
$var parameter 32 :! i $end
$upscope $end
$scope begin genblk1[7] $end
$var parameter 32 ;! i $end
$upscope $end
$scope begin genblk1[6] $end
$var parameter 32 <! i $end
$upscope $end
$scope begin genblk1[5] $end
$var parameter 32 =! i $end
$upscope $end
$scope begin genblk1[4] $end
$var parameter 32 >! i $end
$upscope $end
$scope begin genblk1[3] $end
$var parameter 32 ?! i $end
$upscope $end
$scope begin genblk1[2] $end
$var parameter 32 @! i $end
$upscope $end
$scope begin genblk1[1] $end
$var parameter 32 A! i $end
$upscope $end
$scope begin genblk1[0] $end
$var parameter 32 B! i $end
$upscope $end
$upscope $end
$upscope $end
$enddefinitions $end
#0
$dumpvars
1!
1"
b0 #
0$
0%
0&
0'
bx V
bx W
bx X
bx Y
0Z
0[
0\
0]
0^
x_
0`
b0 0
b0 1
b1 2
b10 3
b11 4
b0 B!
b1 A!
b10 @!
b11 ?!
b100 >!
b101 =!
b110 <!
b111 ;!
b1000 :!
b1001 9!
b1010 8!
b1011 7!
b1100 6!
b1101 5!
b1110 4!
b1111 3!
b10000 2!
b10001 1!
b10010 0!
b10011 /!
b10100 .!
b10101 -!
b10110 ,!
b10111 +!
b11000 *!
b11001 )!
b11010 (!
b11011 '!
b11100 &!
b11101 %!
b11110 $!
b11111 #!
b100000 "!
b100001 !!
b100010 ~
b100011 }
b100100 |
b100101 {
b100110 z
b100111 y
b101000 x
b101001 w
b101010 v
b101011 u
b101100 t
b101101 s
b101110 r
b101111 q
b110000 p
b110001 o
b110010 n
b110011 m
b110100 l
b110101 k
b110110 j
b110111 i
b111000 h
b111001 g
b111010 f
b111011 e
b111100 d
b111101 c
b111110 b
b111111 a
b1111101000 -
bx .
bx /
x(
0)
z*
x+
0,
0T
0S
0R
0Q
0P
0O
0N
0M
0L
0K
0J
0I
0H
0G
0F
0E
0D
0C
0B
0A
0@
0?
0>
0=
0<
0;
0:
09
08
07
16
15
zU
$end
#1
0!
05
#2
1!
15
#3
0!
05
#4
1!
15
#5
0!
05
#6
1!
15
#7
0!
05
#8
1!
15
#9
0!
05
#10
1!
15
0"
06
b0 X
b0 W
b0 V
0_
0(
0+
b0 Y
#11
0!
05
#12
1!
15
#13
0!
05
#14
1!
15
#15
0!
05
#16
1!
15
#17
0!
05
#18
1!
15
#19
0!
05
#20
1!
15
1"
1$
16
1Q
b1 Y
#21
0!
05
#22
1!
15
b1 X
1(
#23
0!
05
#24
b0 -
1!
15
b11000111011001000101110001101000 #
1Z
1J
1H
1D
1A
1@
1>
1=
1<
18
17
1P
1L
1K
b11 Y
#25
0!
05
#26
1!
15
1'
b11 X
1S
b1 Y
#27
0!
05
#28
1!
15
0'
b1 X
0Z
b10000000000000000000000000000000000000000000000000 V
1]
1_
1)
1+
0S
#29
0!
05
#30
1!
15
1[
0]
0)
b0 Y
#31
0!
05
#32
1!
15
b0 X
b10000000000000000000000000000000000000000000000000 W
0(
b1 Y
#33
0!
05
#34
b1 -
1!
15
b101010111101011111001011000 #
b1 X
0[
1I
0H
1G
1E
1C
1B
0A
0=
08
07
1(
1M
#35
0!
05
#36
1!
15
1'
1Z
1S
b11 Y
#37
0!
05
#38
1!
15
0'
b11 X
0S
#39
0!
05
#40
1!
15
0Z
#41
0!
05
#42
1!
15
#43
0!
05
#44
b10 -
1!
15
b10011000011000000010111110100 #
0J
0I
0G
0E
0B
0@
1=
0<
1:
1O
1N
0M
0K
#45
0!
05
#46
1!
15
1'
1S
b1 Y
#47
0!
05
#48
1!
15
0'
b1 X
b10000000000000000000000000100000000000000000000000 V
1]
1)
0S
#49
0!
05
#50
1!
15
1[
0]
0)
b0 Y
#51
0!
05
#52
1!
15
b0 X
b10000000000000000000000000100000000000000000000000 W
0(
b1 Y
#53
0!
05
#54
b11 -
1!
15
b1101011100010111010000100011100 #
b1 X
0[
1I
1G
1F
1E
0D
1?
1;
0:
19
18
1(
0P
0O
0L
#55
0!
05
#56
1!
15
1'
1Z
1S
b11 Y
#57
0!
05
#58
1!
15
0'
b11 X
0S
#59
0!
05
#60
1!
15
0Z
#61
0!
05
#62
1!
15
#63
0!
05
#64
b100 -
1!
15
b10001111001111111101000101111000 #
1J
0I
1H
1D
1B
1A
0?
1<
09
08
17
1P
#65
0!
05
#66
1!
15
1'
1S
b1 Y
#67
0!
05
#68
1!
15
0'
b1 X
b10000000000000000000000000100000000000000000100000 V
1]
1)
0S
#69
0!
05
#70
1!
15
1[
0]
0)
b0 Y
#71
0!
05
#72
1!
15
b0 X
b10000000000000000000000000100000000000000000100000 W
0(
b1 Y
#73
0!
05
#74
b101 -
1!
15
b1100010101011100011111011110100 #
b1 X
0[
1I
0H
0G
0F
0B
1?
0>
0<
0;
19
18
07
1(
1O
0N
1M
1L
1K
#75
0!
05
#76
1!
15
1'
1Z
1S
b11 Y
#77
0!
05
#78
1!
15
0'
b11 X
0S
#79
0!
05
#80
1!
15
0Z
#81
0!
05
#82
1!
15
#83
0!
05
#84
b110 -
1!
15
b11000011110000001011010010110100 #
1G
0E
0D
0C
0A
1@
1>
09
17
0P
0M
0K
#85
0!
05
#86
1!
15
1'
1S
b1 Y
#87
0!
05
#88
1!
15
0'
b1 X
b10000000000000000000000000100001000000000000100000 V
1]
1)
0S
#89
0!
05
#90
1!
15
1[
0]
0)
b0 Y
#91
0!
05
#92
1!
15
b0 X
b10000000000000000000000000100001000000000000100000 W
0(
b1 Y
#93
0!
05
#94
b111 -
1!
15
b11101101001101000000100001100000 #
b1 X
0[
0J
0I
0G
1D
1B
1A
0@
0?
0=
1<
1;
19
1(
1P
0O
0L
1K
#95
0!
05
#96
1!
15
1'
1Z
1S
b11 Y
#97
0!
05
#98
1!
15
0'
b11 X
0S
#99
0!
05
#100
1!
15
0Z
#101
0!
05
#102
1!
15
#103
0!
05
#104
b1000 -
1!
15
b10100011101010001011001111010000 #
1J
1I
1G
0D
1C
0B
1?
1=
0<
0;
08
1O
1N
1M
0K
#105
0!
05
#106
1!
15
1'
1S
b1 Y
#107
0!
05
#108
1!
15
0'
b1 X
b10000000000000000000000000100001001000000000100000 V
1]
1)
0S
#109
0!
05
#110
1!
15
1[
0]
0)
b0 Y
#111
0!
05
#112
1!
15
b0 X
b10000000000000000000000000100001001000000000100000 W
0(
b1 Y
#113
0!
05
#114
b1001 -
1!
15
b10011000011000001001001000101100 #
b1 X
0[
0I
0C
1@
0?
0>
0=
1;
1:
09
1(
0P
0O
0N
#115
0!
05
#116
1!
15
1'
1Z
1S
b11 Y
#117
0!
05
#118
1!
15
0'
b11 X
0S
#119
0!
05
#120
1!
15
0Z
#121
0!
05
#122
1!
15
#123
0!
05
#124
b1010 -
1!
15
0$
0Q
