modelsim/tb_L1_D_controller.vcd
$date
	Fri Apr 12 11:58:15 2024
$end
$version
	ModelSim Version 10.1c
$end
$timescale
	1ns
$end
$scope module tb_L1_D_controller $end
$var parameter 32 ! L1_CLK $end
$var parameter 32 " L2_CLK $end
$var parameter 32 # TOTAL $end
$var parameter 32 $ INIT $end
$var parameter 32 % TNUM $end
$var parameter 32 & INUM $end
$var parameter 32 ' TNUM_2 $end
$var parameter 32 ( INUM_2 $end
$var reg 1 ) clk $end
$var reg 1 * nrst $end
$var reg 32 + address [31:0] $end
$var reg 1 , read_C_L1 $end
$var reg 1 - flush $end
$var reg 1 . ready_L2_L1 $end
$var reg 1 / write_C_L1 $end
$var wire 1 0 stall $end
$var wire 1 1 refill $end
$var wire 1 2 update $end
$var wire 1 3 read_L1_L2 $end
$var wire 1 4 write_L1_L2 $end
$var wire 1 5 way $end
$var wire 1 6 index_L1_L2 [7] $end
$var wire 1 7 index_L1_L2 [6] $end
$var wire 1 8 index_L1_L2 [5] $end
$var wire 1 9 index_L1_L2 [4] $end
$var wire 1 : index_L1_L2 [3] $end
$var wire 1 ; index_L1_L2 [2] $end
$var wire 1 < index_L1_L2 [1] $end
$var wire 1 = index_L1_L2 [0] $end
$var wire 1 > tag_L1_L2 [17] $end
$var wire 1 ? tag_L1_L2 [16] $end
$var wire 1 @ tag_L1_L2 [15] $end
$var wire 1 A tag_L1_L2 [14] $end
$var wire 1 B tag_L1_L2 [13] $end
$var wire 1 C tag_L1_L2 [12] $end
$var wire 1 D tag_L1_L2 [11] $end
$var wire 1 E tag_L1_L2 [10] $end
$var wire 1 F tag_L1_L2 [9] $end
$var wire 1 G tag_L1_L2 [8] $end
$var wire 1 H tag_L1_L2 [7] $end
$var wire 1 I tag_L1_L2 [6] $end
$var wire 1 J tag_L1_L2 [5] $end
$var wire 1 K tag_L1_L2 [4] $end
$var wire 1 L tag_L1_L2 [3] $end
$var wire 1 M tag_L1_L2 [2] $end
$var wire 1 N tag_L1_L2 [1] $end
$var wire 1 O tag_L1_L2 [0] $end
$var wire 1 P write_index_L1_L2 [7] $end
$var wire 1 Q write_index_L1_L2 [6] $end
$var wire 1 R write_index_L1_L2 [5] $end
$var wire 1 S write_index_L1_L2 [4] $end
$var wire 1 T write_index_L1_L2 [3] $end
$var wire 1 U write_index_L1_L2 [2] $end
$var wire 1 V write_index_L1_L2 [1] $end
$var wire 1 W write_index_L1_L2 [0] $end
$var wire 1 X write_tag_L1_L2 [17] $end
$var wire 1 Y write_tag_L1_L2 [16] $end
$var wire 1 Z write_tag_L1_L2 [15] $end
$var wire 1 [ write_tag_L1_L2 [14] $end
$var wire 1 \ write_tag_L1_L2 [13] $end
$var wire 1 ] write_tag_L1_L2 [12] $end
$var wire 1 ^ write_tag_L1_L2 [11] $end
$var wire 1 _ write_tag_L1_L2 [10] $end
$var wire 1 ` write_tag_L1_L2 [9] $end
$var wire 1 a write_tag_L1_L2 [8] $end
$var wire 1 b write_tag_L1_L2 [7] $end
$var wire 1 c write_tag_L1_L2 [6] $end
$var wire 1 d write_tag_L1_L2 [5] $end
$var wire 1 e write_tag_L1_L2 [4] $end
$var wire 1 f write_tag_L1_L2 [3] $end
$var wire 1 g write_tag_L1_L2 [2] $end
$var wire 1 h write_tag_L1_L2 [1] $end
$var wire 1 i write_tag_L1_L2 [0] $end
$var integer 32 j i $end
$var integer 32 k j $end
$var integer 32 l aa $end
$var integer 32 m ra $end
$var integer 32 n test_state $end
$scope begin init $end
$upscope $end
$scope begin test $end
$upscope $end
$scope module u_L1_D_controller $end
$var parameter 2 o S_IDLE $end
$var parameter 2 p S_COMPARE $end
$var parameter 2 q S_WRITE_BACK $end
$var parameter 2 r S_ALLOCATE $end
$var wire 1 s clk $end
$var wire 1 t nrst $end
$var wire 1 u tag_C_L1 [20] $end
$var wire 1 v tag_C_L1 [19] $end
$var wire 1 w tag_C_L1 [18] $end
$var wire 1 x tag_C_L1 [17] $end
$var wire 1 y tag_C_L1 [16] $end
$var wire 1 z tag_C_L1 [15] $end
$var wire 1 { tag_C_L1 [14] $end
$var wire 1 | tag_C_L1 [13] $end
$var wire 1 } tag_C_L1 [12] $end
$var wire 1 ~ tag_C_L1 [11] $end
$var wire 1 !! tag_C_L1 [10] $end
$var wire 1 "! tag_C_L1 [9] $end
$var wire 1 #! tag_C_L1 [8] $end
$var wire 1 $! tag_C_L1 [7] $end
$var wire 1 %! tag_C_L1 [6] $end
$var wire 1 &! tag_C_L1 [5] $end
$var wire 1 '! tag_C_L1 [4] $end
$var wire 1 (! tag_C_L1 [3] $end
$var wire 1 )! tag_C_L1 [2] $end
$var wire 1 *! tag_C_L1 [1] $end
$var wire 1 +! tag_C_L1 [0] $end
$var wire 1 ,! index_C_L1 [4] $end
$var wire 1 -! index_C_L1 [3] $end
$var wire 1 .! index_C_L1 [2] $end
$var wire 1 /! index_C_L1 [1] $end
$var wire 1 0! index_C_L1 [0] $end
$var wire 1 1! read_C_L1 $end
$var wire 1 2! flush $end
$var wire 1 3! ready_L2_L1 $end
$var wire 1 4! write_C_L1 $end
$var wire 1 0 stall $end
$var wire 1 1 refill $end
$var wire 1 2 update $end
$var wire 1 3 read_L1_L2 $end
$var wire 1 4 write_L1_L2 $end
$var wire 1 6 index_L1_L2 [7] $end
$var wire 1 7 index_L1_L2 [6] $end
$var wire 1 8 index_L1_L2 [5] $end
$var wire 1 9 index_L1_L2 [4] $end
$var wire 1 : index_L1_L2 [3] $end
$var wire 1 ; index_L1_L2 [2] $end
$var wire 1 < index_L1_L2 [1] $end
$var wire 1 = index_L1_L2 [0] $end
$var wire 1 > tag_L1_L2 [17] $end
$var wire 1 ? tag_L1_L2 [16] $end
$var wire 1 @ tag_L1_L2 [15] $end
$var wire 1 A tag_L1_L2 [14] $end
$var wire 1 B tag_L1_L2 [13] $end
$var wire 1 C tag_L1_L2 [12] $end
$var wire 1 D tag_L1_L2 [11] $end
$var wire 1 E tag_L1_L2 [10] $end
$var wire 1 F tag_L1_L2 [9] $end
$var wire 1 G tag_L1_L2 [8] $end
$var wire 1 H tag_L1_L2 [7] $end
$var wire 1 I tag_L1_L2 [6] $end
$var wire 1 J tag_L1_L2 [5] $end
$var wire 1 K tag_L1_L2 [4] $end
$var wire 1 L tag_L1_L2 [3] $end
$var wire 1 M tag_L1_L2 [2] $end
$var wire 1 N tag_L1_L2 [1] $end
$var wire 1 O tag_L1_L2 [0] $end
$var wire 1 > write_tag_L1_L2 [17] $end
$var wire 1 ? write_tag_L1_L2 [16] $end
$var wire 1 @ write_tag_L1_L2 [15] $end
$var wire 1 A write_tag_L1_L2 [14] $end
$var wire 1 B write_tag_L1_L2 [13] $end
$var wire 1 C write_tag_L1_L2 [12] $end
$var wire 1 D write_tag_L1_L2 [11] $end
$var wire 1 E write_tag_L1_L2 [10] $end
$var wire 1 F write_tag_L1_L2 [9] $end
$var wire 1 G write_tag_L1_L2 [8] $end
$var wire 1 H write_tag_L1_L2 [7] $end
$var wire 1 I write_tag_L1_L2 [6] $end
$var wire 1 J write_tag_L1_L2 [5] $end
$var wire 1 K write_tag_L1_L2 [4] $end
$var wire 1 L write_tag_L1_L2 [3] $end
$var wire 1 M write_tag_L1_L2 [2] $end
$var wire 1 N write_tag_L1_L2 [1] $end
$var wire 1 O write_tag_L1_L2 [0] $end
$var wire 1 6 write_index_L1_L2 [7] $end
$var wire 1 7 write_index_L1_L2 [6] $end
$var wire 1 8 write_index_L1_L2 [5] $end
$var wire 1 9 write_index_L1_L2 [4] $end
$var wire 1 : write_index_L1_L2 [3] $end
$var wire 1 ; write_index_L1_L2 [2] $end
$var wire 1 < write_index_L1_L2 [1] $end
$var wire 1 = write_index_L1_L2 [0] $end
$var wire 1 5 way $end
$var reg 64 5! valid [63:0] $end
$var reg 64 6! dirty [63:0] $end
$var reg 2 7! state [1:0] $end
$var reg 2 8! next_state [1:0] $end
$var reg 1 9! miss $end
$var reg 1 :! hit $end
$var reg 1 ;! read_C_L1_reg $end
$var reg 1 <! refill_reg $end
$var reg 1 =! update_reg $end
$var reg 1 >! read_L1_L2_reg $end
$var reg 1 ?! write_L1_L2_reg $end
$var reg 32 @! LRU_reg [31:0] $end
$var reg 1 A! way_reg $end
$var reg 1 B! check $end
$scope begin genblk1[63] $end
$var parameter 32 C! i $end
$upscope $end
$scope begin genblk1[62] $end
$var parameter 32 D! i $end
$upscope $end
$scope begin genblk1[61] $end
$var parameter 32 E! i $end
$upscope $end
$scope begin genblk1[60] $end
$var parameter 32 F! i $end
$upscope $end
$scope begin genblk1[59] $end
$var parameter 32 G! i $end
$upscope $end
$scope begin genblk1[58] $end
$var parameter 32 H! i $end
$upscope $end
$scope begin genblk1[57] $end
$var parameter 32 I! i $end
$upscope $end
$scope begin genblk1[56] $end
$var parameter 32 J! i $end
$upscope $end
$scope begin genblk1[55] $end
$var parameter 32 K! i $end
$upscope $end
$scope begin genblk1[54] $end
$var parameter 32 L! i $end
$upscope $end
$scope begin genblk1[53] $end
$var parameter 32 M! i $end
$upscope $end
$scope begin genblk1[52] $end
$var parameter 32 N! i $end
$upscope $end
$scope begin genblk1[51] $end
$var parameter 32 O! i $end
$upscope $end
$scope begin genblk1[50] $end
$var parameter 32 P! i $end
$upscope $end
$scope begin genblk1[49] $end
$var parameter 32 Q! i $end
$upscope $end
$scope begin genblk1[48] $end
$var parameter 32 R! i $end
$upscope $end
$scope begin genblk1[47] $end
$var parameter 32 S! i $end
$upscope $end
$scope begin genblk1[46] $end
$var parameter 32 T! i $end
$upscope $end
$scope begin genblk1[45] $end
$var parameter 32 U! i $end
$upscope $end
$scope begin genblk1[44] $end
$var parameter 32 V! i $end
$upscope $end
$scope begin genblk1[43] $end
$var parameter 32 W! i $end
$upscope $end
$scope begin genblk1[42] $end
$var parameter 32 X! i $end
$upscope $end
$scope begin genblk1[41] $end
$var parameter 32 Y! i $end
$upscope $end
$scope begin genblk1[40] $end
$var parameter 32 Z! i $end
$upscope $end
$scope begin genblk1[39] $end
$var parameter 32 [! i $end
$upscope $end
$scope begin genblk1[38] $end
$var parameter 32 \! i $end
$upscope $end
$scope begin genblk1[37] $end
$var parameter 32 ]! i $end
$upscope $end
$scope begin genblk1[36] $end
$var parameter 32 ^! i $end
$upscope $end
$scope begin genblk1[35] $end
$var parameter 32 _! i $end
$upscope $end
$scope begin genblk1[34] $end
$var parameter 32 `! i $end
$upscope $end
$scope begin genblk1[33] $end
$var parameter 32 a! i $end
$upscope $end
$scope begin genblk1[32] $end
$var parameter 32 b! i $end
$upscope $end
$scope begin genblk1[31] $end
$var parameter 32 c! i $end
$upscope $end
$scope begin genblk1[30] $end
$var parameter 32 d! i $end
$upscope $end
$scope begin genblk1[29] $end
$var parameter 32 e! i $end
$upscope $end
$scope begin genblk1[28] $end
$var parameter 32 f! i $end
$upscope $end
$scope begin genblk1[27] $end
$var parameter 32 g! i $end
$upscope $end
$scope begin genblk1[26] $end
$var parameter 32 h! i $end
$upscope $end
$scope begin genblk1[25] $end
$var parameter 32 i! i $end
$upscope $end
$scope begin genblk1[24] $end
$var parameter 32 j! i $end
$upscope $end
$scope begin genblk1[23] $end
$var parameter 32 k! i $end
$upscope $end
$scope begin genblk1[22] $end
$var parameter 32 l! i $end
$upscope $end
$scope begin genblk1[21] $end
$var parameter 32 m! i $end
$upscope $end
$scope begin genblk1[20] $end
$var parameter 32 n! i $end
$upscope $end
$scope begin genblk1[19] $end
$var parameter 32 o! i $end
$upscope $end
$scope begin genblk1[18] $end
$var parameter 32 p! i $end
$upscope $end
$scope begin genblk1[17] $end
$var parameter 32 q! i $end
$upscope $end
$scope begin genblk1[16] $end
$var parameter 32 r! i $end
$upscope $end
$scope begin genblk1[15] $end
$var parameter 32 s! i $end
$upscope $end
$scope begin genblk1[14] $end
$var parameter 32 t! i $end
$upscope $end
$scope begin genblk1[13] $end
$var parameter 32 u! i $end
$upscope $end
$scope begin genblk1[12] $end
$var parameter 32 v! i $end
$upscope $end
$scope begin genblk1[11] $end
$var parameter 32 w! i $end
$upscope $end
$scope begin genblk1[10] $end
$var parameter 32 x! i $end
$upscope $end
$scope begin genblk1[9] $end
$var parameter 32 y! i $end
$upscope $end
$scope begin genblk1[8] $end
$var parameter 32 z! i $end
$upscope $end
$scope begin genblk1[7] $end
$var parameter 32 {! i $end
$upscope $end
$scope begin genblk1[6] $end
$var parameter 32 |! i $end
$upscope $end
$scope begin genblk1[5] $end
$var parameter 32 }! i $end
$upscope $end
$scope begin genblk1[4] $end
$var parameter 32 ~! i $end
$upscope $end
$scope begin genblk1[3] $end
$var parameter 32 !" i $end
$upscope $end
$scope begin genblk1[2] $end
$var parameter 32 "" i $end
$upscope $end
$scope begin genblk1[1] $end
$var parameter 32 #" i $end
$upscope $end
$scope begin genblk1[0] $end
$var parameter 32 $" i $end
$upscope $end
$upscope $end
$upscope $end
$enddefinitions $end
#0
$dumpvars
1)
1*
b0 +
0,
0-
0.
0/
bx 5!
bx 6!
bx 7!
bx 8!
09!
0:!
x;!
0<!
0=!
0>!
0?!
bx @!
xA!
xB!
b1 !
b1 "
b1000000 #
b100000 $
b10101 %
b101 &
b10010 '
b1000 (
b0 o
b1 p
b10 q
b11 r
b0 $"
b1 #"
b10 ""
b11 !"
b100 ~!
b101 }!
b110 |!
b111 {!
b1000 z!
b1001 y!
b1010 x!
b1011 w!
b1100 v!
b1101 u!
b1110 t!
b1111 s!
b10000 r!
b10001 q!
b10010 p!
b10011 o!
b10100 n!
b10101 m!
b10110 l!
b10111 k!
b11000 j!
b11001 i!
b11010 h!
b11011 g!
b11100 f!
b11101 e!
b11110 d!
b11111 c!
b100000 b!
b100001 a!
b100010 `!
b100011 _!
b100100 ^!
b100101 ]!
b100110 \!
b100111 [!
b101000 Z!
b101001 Y!
b101010 X!
b101011 W!
b101100 V!
b101101 U!
b101110 T!
b101111 S!
b110000 R!
b110001 Q!
b110010 P!
b110011 O!
b110100 N!
b110101 M!
b110110 L!
b110111 K!
b111000 J!
b111001 I!
b111010 H!
b111011 G!
b111100 F!
b111101 E!
b111110 D!
b111111 C!
bx j
bx k
b10000000000000000000000000000100 l
b10000000000000000000000000000101 m
b1 n
x0
01
02
03
04
x5
0=
0<
0;
0:
09
x8
x7
x6
xO
xN
xM
xL
xK
xJ
xI
xH
xG
xF
xE
xD
xC
xB
xA
x@
x?
x>
zW
zV
zU
zT
zS
zR
zQ
zP
zi
zh
zg
zf
ze
zd
zc
zb
za
z`
z_
z^
z]
z\
z[
zZ
zY
zX
1s
1t
0+!
0*!
0)!
0(!
0'!
0&!
0%!
0$!
0#!
0"!
0!!
0~
0}
0|
0{
0z
0y
0x
0w
0v
0u
00!
0/!
0.!
0-!
0,!
01!
02!
03!
04!
$end
#1
0)
0s
#2
1)
1s
b0 j
b1 j
b10 j
b11 j
b100 j
b101 j
b110 j
b111 j
b1000 j
b1001 j
b1010 j
b1011 j
b1100 j
b1101 j
b1110 j
b1111 j
b10000 j
b10001 j
b10010 j
b10011 j
b10100 j
b10101 j
b10110 j
b10111 j
b11000 j
b11001 j
b11010 j
b11011 j
b11100 j
b11101 j
b11110 j
b11111 j
b100000 j
b100001 j
b100010 j
b100011 j
b100100 j
b100101 j
b100110 j
b100111 j
b101000 j
b101001 j
b101010 j
b101011 j
b101100 j
b101101 j
b101110 j
b101111 j
b110000 j
b110001 j
b110010 j
b110011 j
b110100 j
b110101 j
b110110 j
b110111 j
b111000 j
b111001 j
b111010 j
b111011 j
b111100 j
b111101 j
b111110 j
b111111 j
b1000000 j
b0 j
b1 j
b10 j
b11 j
b100 j
b101 j
b110 j
b111 j
b1000 j
b1001 j
b1010 j
b1011 j
b1100 j
b1101 j
b1110 j
b1111 j
b10000 j
b10001 j
b10010 j
b10011 j
b10100 j
b10101 j
b10110 j
b10111 j
b11000 j
b11001 j
b11010 j
b11011 j
b11100 j
b11101 j
b11110 j
b11111 j
b100000 j
b100001 j
b100010 j
b100011 j
b100100 j
b100101 j
b100110 j
b100111 j
b101000 j
b101001 j
b101010 j
b101011 j
b101100 j
b101101 j
b101110 j
b101111 j
b110000 j
b110001 j
b110010 j
b110011 j
b110100 j
b110101 j
b110110 j
b110111 j
b111000 j
b111001 j
b111010 j
b111011 j
b111100 j
b111101 j
b111110 j
b111111 j
b1000000 j
#3
0)
0s
#4
1)
1s
#5
0)
0s
#6
1)
1s
#7
0)
0s
#8
1)
1s
#9
0)
0s
#10
1)
1s
0*
0t
b0 7!
0B!
0A!
b0 @!
b0 6!
b0 5!
00
0O
0N
0M
0L
0K
0J
0I
0H
0G
0F
0E
0D
0C
0B
0A
0@
0?
0>
08
07
06
05
b0 8!
#11
0)
0s
#12
1)
1s
#13
0)
0s
#14
1)
1s
#15
0)
0s
#16
1)
1s
#17
0)
0s
#18
1)
1s
#19
0)
0s
#20
1)
1s
1*
1,
b0 j
b11000111011001000101100000101011 +
1+!
1*!
1(!
1$!
1!!
1~
1|
1{
1z
1v
1u
xO
xK
xH
xG
xE
xD
xC
x?
x>
x8
x7
1t
11!
b1 8!
#21
0)
0s
#22
1)
1s
b1 7!
10
#23
0)
0s
#24
1)
1s
19!
b11 8!
#25
0)
0s
#26
1)
1s
b11 7!
09!
#27
0)
0s
#28
1)
1s
1.
13!
1B!
1>!
b1 8!
13
#29
0)
0s
#30
1)
1s
0.
03!
b1 7!
b1 5!
1<!
b11 8!
11
1O
1K
1H
1G
1E
1D
1C
1?
1>
18
17
b1 8!
#31
0)
0s
#32
1)
1s
1:!
0<!
0>!
01
03
b0 8!
#33
0)
0s
#34
1)
1s
b0 7!
b1 @!
0:!
00
b1 8!
#35
0)
0s
#36
1)
1s
b1 j
b101010111101011100001011011 +
1)!
0(!
1'!
1%!
1#!
1"!
0!!
0{
0v
0u
xO
xN
xL
xJ
xI
xH
xD
x?
x>
x6
10!
0O
xK
0H
xG
xE
0D
xC
0?
0>
1=
x8
x7
b1 7!
0B!
10
#37
0)
0s
#38
1)
1s
19!
b11 8!
#39
0)
0s
#40
1)
1s
b11 7!
09!
#41
0)
0s
#42
1)
1s
1B!
1>!
13
#43
0)
0s
#44
1)
1s
1.
13!
b1 8!
#45
0)
0s
#46
1)
1s
0.
03!
b1 7!
b101 5!
1<!
b11 8!
11
1N
1L
1K
1J
1I
1G
1E
1C
18
17
16
b1 8!
#47
0)
0s
#48
1)
1s
1:!
0<!
0>!
01
03
b0 8!
#49
0)
0s
#50
1)
1s
b0 7!
b11 @!
0:!
00
b1 8!
#51
0)
0s
#52
1)
1s
b10 j
b10011000011000000000010110101 +
0+!
0*!
0)!
0'!
0%!
0"!
0~
1{
0z
1x
xN
xL
xI
xG
xD
xC
xA
x8
x7
x6
00!
1/!
0N
0L
xK
xJ
0I
0G
xE
0C
0=
1<
08
07
06
b1 7!
0B!
10
#53
0)
0s
#54
1)
1s
19!
b11 8!
#55
0)
0s
#56
1)
1s
b11 7!
09!
#57
0)
0s
#58
1)
1s
1B!
1>!
13
#59
0)
0s
#60
1)
1s
1.
13!
b1 8!
#61
0)
0s
#62
1)
1s
0.
03!
b1 7!
b10101 5!
1<!
b11 8!
11
1K
1J
1E
1D
1A
b1 8!
#63
0)
0s
#64
1)
1s
1:!
0<!
0>!
01
03
b0 8!
#65
0)
0s
#66
1)
1s
b0 7!
b111 @!
0:!
00
b1 8!
#67
0)
0s
#68
1)
1s
b11 j
b1101011100010111010000011011101 +
1)!
1'!
1&!
1%!
0$!
1}
1y
0x
1w
1v
xN
xM
xL
xK
xF
xB
xA
x@
x?
x6
10!
0K
xJ
xE
xD
0A
1=
b1 7!
0B!
10
#69
0)
0s
#70
1)
1s
19!
b11 8!
#71
0)
0s
#72
1)
1s
b11 7!
09!
#73
0)
0s
#74
1)
1s
1B!
1>!
13
#75
0)
0s
#76
1)
1s
1.
13!
b1 8!
#77
0)
0s
#78
1)
1s
0.
03!
b1 7!
b1010101 5!
1<!
b11 8!
11
1N
1M
1L
1J
1F
1E
1D
1B
1@
1?
16
b1 8!
#79
0)
0s
#80
1)
1s
1:!
0<!
0>!
01
03
b0 8!
#81
0)
0s
#82
1)
1s
b0 7!
b1111 @!
0:!
00
b1 8!
#83
0)
0s
#84
1)
1s
b100 j
b10001111001111111101000100111000 +
1*!
0)!
1(!
1$!
1"!
1!!
0}
1z
0w
0v
1u
xO
xK
xI
xH
xF
xC
x@
x?
x>
x7
x6
00!
0/!
1.!
xN
xM
xL
xJ
0F
xE
xD
xB
0@
0?
0=
0<
1;
06
b1 7!
0B!
10
#85
0)
0s
#86
1)
1s
19!
b11 8!
#87
0)
0s
#88
1)
1s
b11 7!
09!
#89
0)
0s
#90
1)
1s
1B!
1>!
13
#91
0)
0s
#92
1)
1s
1.
13!
b1 8!
#93
0)
0s
#94
1)
1s
0.
03!
b1 7!
b101010101 5!
1<!
b11 8!
11
1O
1N
1M
1L
1K
1J
1I
1H
1E
1D
1C
1B
1>
17
b1 8!
#95
0)
0s
#96
1)
1s
1:!
0<!
0>!
01
03
b0 8!
#97
0)
0s
#98
1)
1s
b0 7!
b11111 @!
0:!
00
b1 8!
#99
0)
0s
#100
1)
1s
b101 j
b1100010101011100011100101110100 +
1+!
1)!
0(!
0'!
0&!
0"!
1}
0|
0z
0y
1w
1v
0u
xO
xN
xM
xI
xF
xE
xC
xB
x@
x?
x>
x8
x6
10!
0O
0N
0M
xL
xK
xJ
0I
xH
0E
xD
0C
0B
0>
1=
x7
b1 7!
0B!
10
#101
0)
0s
#102
1)
1s
19!
b11 8!
#103
0)
0s
#104
1)
1s
b11 7!
09!
#105
0)
0s
#106
1)
1s
1B!
1>!
13
#107
0)
0s
#108
1)
1s
1.
13!
b1 8!
#109
0)
0s
#110
1)
1s
0.
03!
b1 7!
b10101010101 5!
1<!
b11 8!
11
1L
1K
1J
1H
1F
1D
1@
1?
18
17
16
b1 8!
#111
0)
0s
#112
1)
1s
1:!
0<!
0>!
01
03
b0 8!
#113
0)
0s
#114
1)
1s
b0 7!
b111111 @!
0:!
00
b1 8!
#115
0)
0s
#116
1)
1s
b110 j
b11000011110000001011000110110110 +
0+!
1'!
0%!
0$!
0#!
0!!
1~
1|
0w
1u
xN
xL
xK
xJ
xH
xG
xE
x@
x>
x8
00!
1/!
0L
0K
0J
0H
xF
xD
0@
x?
0=
1<
08
x7
x6
b1 7!
0B!
10
#117
0)
0s
#118
1)
1s
19!
b11 8!
#119
0)
0s
#120
1)
1s
b11 7!
09!
#121
0)
0s
#122
1)
1s
1B!
1>!
13
#123
0)
0s
#124
1)
1s
1.
13!
b1 8!
#125
0)
0s
#126
1)
1s
0.
03!
b1 7!
b1010101010101 5!
1<!
b11 8!
11
1N
1G
1F
1E
1D
1?
1>
17
16
b1 8!
#127
0)
0s
#128
1)
1s
1:!
0<!
0>!
01
03
b0 8!
#129
0)
0s
#130
1)
1s
b0 7!
b1111111 @!
0:!
00
b1 8!
#131
0)
0s
#132
1)
1s
b111 j
b11101101001101000000100111100010 +
1+!
0*!
0)!
0'!
1$!
1"!
1!!
0~
0}
0{
1z
1y
1w
xN
xK
xI
xH
xG
xF
xD
xC
xB
x@
x8
x7
x6
10!
0N
0G
0F
xE
0D
x?
x>
1=
07
06
b1 7!
0B!
10
#133
0)
0s
#134
1)
1s
19!
b11 8!
#135
0)
0s
#136
1)
1s
b11 7!
09!
#137
0)
0s
#138
1)
1s
1B!
1>!
13
#139
0)
0s
#140
1)
1s
1.
13!
b1 8!
#141
0)
0s
#142
1)
1s
0.
03!
b1 7!
b101010101010101 5!
1<!
b11 8!
11
1K
1I
1H
1E
1C
1B
1@
1?
1>
18
b1 8!
#143
0)
0s
#144
1)
1s
1:!
0<!
0>!
01
03
b0 8!
#145
0)
0s
#146
1)
1s
b0 7!
b11111111 @!
0:!
00
b1 8!
#147
0)
0s
#148
1)
1s
b1000 j
b10100011101010001011001000010010 +
0+!
1*!
1)!
1'!
0$!
1#!
0"!
1}
1{
0z
0y
0v
xN
xK
xJ
xI
xF
xD
xC
xB
x?
x8
x7
x6
00!
0/!
0.!
1-!
0K
0I
xH
xE
0C
0B
x@
0?
x>
0=
0<
0;
1:
08
b1 7!
0B!
10
#149
0)
0s
#150
1)
1s
19!
b11 8!
#151
0)
0s
#152
1)
1s
b11 7!
09!
#153
0)
0s
#154
1)
1s
1B!
1>!
13
#155
0)
0s
#156
1)
1s
1.
13!
b1 8!
#157
0)
0s
#158
1)
1s
0.
03!
b1 7!
b10101010101010101 5!
1<!
b11 8!
11
1N
1J
1H
1F
1E
1D
1@
1>
17
16
b1 8!
#159
0)
0s
#160
1)
1s
1:!
0<!
0>!
01
03
b0 8!
#161
0)
0s
#162
1)
1s
b0 7!
b111111111 @!
0:!
00
b1 8!
#163
0)
0s
#164
1)
1s
b1001 j
b10011000011000001001001001101110 +
0)!
0#!
1~
0}
0|
0{
1y
1x
0w
xJ
xG
xF
xE
xD
xB
xA
x@
x6
10!
xN
0J
xH
0F
0E
0D
0@
x>
1=
x7
06
b1 7!
0B!
10
#165
0)
0s
#166
1)
1s
19!
b11 8!
#167
0)
0s
#168
1)
1s
b11 7!
09!
#169
0)
0s
#170
1)
1s
1B!
1>!
13
#171
0)
0s
#172
1)
1s
1.
13!
b1 8!
#173
0)
0s
#174
1)
1s
0.
03!
b1 7!
b1010101010101010101 5!
1<!
b11 8!
11
1N
1H
1G
1B
1A
1>
17
b1 8!
#175
0)
0s
#176
1)
1s
1:!
0<!
0>!
01
03
b0 8!
#177
0)
0s
#178
1)
1s
b0 7!
b1111111111 @!
0:!
00
b1 8!
#179
0)
0s
#180
1)
1s
b1010 j
b10111010110111000100001010001000 +
0*!
1(!
0'!
1$!
1#!
1"!
0!!
1}
1{
1w
xO
xN
xK
xJ
xI
xH
xF
xD
x@
x7
00!
1/!
0N
0H
xG
xB
xA
x>
0=
1<
07
b1 7!
0B!
10
#181
0)
0s
#182
1)
1s
19!
b11 8!
#183
0)
0s
#184
1)
1s
b11 7!
09!
#185
0)
0s
#186
1)
1s
1B!
1>!
13
#187
0)
0s
#188
1)
1s
1.
13!
b1 8!
#189
0)
0s
#190
1)
1s
0.
03!
b1 7!
b101010101010101010101 5!
1<!
b11 8!
11
1O
1K
1J
1I
1G
1F
1D
1B
1A
1@
1>
b1 8!
#191
0)
0s
#192
1)
1s
1:!
0<!
0>!
01
03
b0 8!
#193
0)
0s
#194
1)
1s
b0 7!
b11111111111 @!
0:!
00
b1 8!
#195
0)
0s
#196
1)
1s
b1011 j
b11111110000011000001101011111100 +
1+!
1*!
0(!
0"!
0~
0}
1z
1v
xO
xI
xG
xF
xC
x?
x8
x7
10!
0O
xK
xJ
0I
0G
0F
xD
xB
xA
x@
x>
1=
b1 7!
0B!
10
#197
0)
0s
#198
1)
1s
19!
b11 8!
#199
0)
0s
#200
1)
1s
b11 7!
09!
#201
0)
0s
#202
1)
1s
1B!
1>!
13
#203
0)
0s
#204
1)
1s
1.
13!
b1 8!
#205
0)
0s
#206
1)
1s
0.
03!
b1 7!
b10101010101010101010101 5!
1<!
b11 8!
11
1K
1J
1D
1C
1B
1A
1@
1?
1>
18
17
b1 8!
#207
0)
0s
#208
1)
1s
1:!
0<!
0>!
01
03
b0 8!
#209
0)
0s
#210
1)
1s
b0 7!
b111111111111 @!
0:!
00
b1 8!
#211
0)
0s
#212
1)
1s
b1100 j
b10100100000001111001001100011111 +
0+!
1'!
1&!
1%!
0#!
0{
0y
0x
0v
xN
xM
xL
xJ
xD
xB
xA
x?
x8
00!
0/!
1.!
xK
0J
0D
xC
0B
0A
x@
0?
x>
0=
0<
1;
08
x7
b1 7!
0B!
10
#213
0)
0s
#214
1)
1s
19!
b11 8!
#215
0)
0s
#216
1)
1s
b11 7!
09!
#217
0)
0s
#218
1)
1s
1B!
1>!
13
#219
0)
0s
#220
1)
1s
1.
13!
b1 8!
#221
0)
0s
#222
1)
1s
0.
03!
b1 7!
b1010101010101010101010101 5!
1<!
b11 8!
11
1N
1M
1L
1K
1C
1@
1>
17
b1 8!
#223
0)
0s
#224
1)
1s
1:!
0<!
0>!
01
03
b0 8!
#225
0)
0s
#226
1)
1s
b0 7!
b1111111111111 @!
0:!
00
b1 8!
#227
0)
0s
#228
1)
1s
b1101 j
b1101011101001100101101101101110 +
1+!
1(!
0'!
0&!
1!!
1}
1|
1{
0z
1y
1v
0u
xO
xN
xM
xH
xF
xE
xD
xC
xB
x?
x>
x8
10!
0N
0M
xL
xK
0C
x@
0>
1=
x7
b1 7!
0B!
10
#229
0)
0s
#230
1)
1s
19!
b11 8!
#231
0)
0s
#232
1)
1s
b11 7!
09!
#233
0)
0s
#234
1)
1s
1B!
1>!
13
#235
0)
0s
#236
1)
1s
1.
13!
b1 8!
#237
0)
0s
#238
1)
1s
0.
03!
b1 7!
b101010101010101010101010101 5!
1<!
b11 8!
11
1O
1L
1K
1H
1F
1E
1D
1B
1@
1?
18
17
b1 8!
#239
0)
0s
#240
1)
1s
1:!
0<!
0>!
01
03
b0 8!
#241
0)
0s
#242
1)
1s
b0 7!
b11111111111111 @!
0:!
00
b1 8!
#243
0)
0s
#244
1)
1s
b1110 j
b11101000011010010001110110100 +
0+!
0*!
1)!
0(!
1&!
0%!
1#!
0!!
0}
0{
1z
1x
0w
0v
xO
xM
xL
xJ
xH
xF
xD
xC
xA
x@
x?
x8
x7
x6
00!
1/!
0O
0L
xK
0H
0F
xE
0D
xB
0@
0?
0=
1<
08
07
b1 7!
0B!
10
#245
0)
0s
#246
1)
1s
19!
b11 8!
#247
0)
0s
#248
1)
1s
b11 7!
09!
#249
0)
0s
#250
1)
1s
1B!
1>!
13
#251
0)
0s
#252
1)
1s
1.
13!
b1 8!
#253
0)
0s
