modelsim/tb_L1_I_controller.vcd
$date
	Thu Apr 11 09:08:12 2024
$end
$version
	ModelSim Version 10.1c
$end
$timescale
	1ns
$end
$scope module tb_L1_I_controller $end
$var parameter 32 ! L1_CLK $end
$var parameter 32 " L2_CLK $end
$var parameter 32 # TOTAL $end
$var parameter 32 $ INIT $end
$var parameter 32 % TNUM $end
$var parameter 32 & INUM $end
$var parameter 32 ' TNUM_2 $end
$var parameter 32 ( INUM_2 $end
$var reg 1 ) clk $end
$var reg 1 * nrst $end
$var reg 32 + address [31:0] $end
$var reg 1 , read_C_L1 $end
$var reg 1 - flush $end
$var reg 1 . ready_L2_L1 $end
$var wire 1 / stall $end
$var wire 1 0 refill $end
$var wire 1 1 read_L1_L2 $end
$var wire 1 2 way $end
$var wire 1 3 index_L1_L2 [7] $end
$var wire 1 4 index_L1_L2 [6] $end
$var wire 1 5 index_L1_L2 [5] $end
$var wire 1 6 index_L1_L2 [4] $end
$var wire 1 7 index_L1_L2 [3] $end
$var wire 1 8 index_L1_L2 [2] $end
$var wire 1 9 index_L1_L2 [1] $end
$var wire 1 : index_L1_L2 [0] $end
$var wire 1 ; tag_L1_L2 [17] $end
$var wire 1 < tag_L1_L2 [16] $end
$var wire 1 = tag_L1_L2 [15] $end
$var wire 1 > tag_L1_L2 [14] $end
$var wire 1 ? tag_L1_L2 [13] $end
$var wire 1 @ tag_L1_L2 [12] $end
$var wire 1 A tag_L1_L2 [11] $end
$var wire 1 B tag_L1_L2 [10] $end
$var wire 1 C tag_L1_L2 [9] $end
$var wire 1 D tag_L1_L2 [8] $end
$var wire 1 E tag_L1_L2 [7] $end
$var wire 1 F tag_L1_L2 [6] $end
$var wire 1 G tag_L1_L2 [5] $end
$var wire 1 H tag_L1_L2 [4] $end
$var wire 1 I tag_L1_L2 [3] $end
$var wire 1 J tag_L1_L2 [2] $end
$var wire 1 K tag_L1_L2 [1] $end
$var wire 1 L tag_L1_L2 [0] $end
$var integer 32 M i $end
$var integer 32 N j $end
$var integer 32 O aa $end
$var integer 32 P ra $end
$var integer 32 Q test_state $end
$scope begin init $end
$upscope $end
$scope begin test $end
$upscope $end
$scope module u_L1_I_controller $end
$var parameter 2 R S_IDLE $end
$var parameter 2 S S_COMPARE $end
$var parameter 2 T S_ALLOCATE $end
$var wire 1 U clk $end
$var wire 1 V nrst $end
$var wire 1 W tag_C_L1 [20] $end
$var wire 1 X tag_C_L1 [19] $end
$var wire 1 Y tag_C_L1 [18] $end
$var wire 1 Z tag_C_L1 [17] $end
$var wire 1 [ tag_C_L1 [16] $end
$var wire 1 \ tag_C_L1 [15] $end
$var wire 1 ] tag_C_L1 [14] $end
$var wire 1 ^ tag_C_L1 [13] $end
$var wire 1 _ tag_C_L1 [12] $end
$var wire 1 ` tag_C_L1 [11] $end
$var wire 1 a tag_C_L1 [10] $end
$var wire 1 b tag_C_L1 [9] $end
$var wire 1 c tag_C_L1 [8] $end
$var wire 1 d tag_C_L1 [7] $end
$var wire 1 e tag_C_L1 [6] $end
$var wire 1 f tag_C_L1 [5] $end
$var wire 1 g tag_C_L1 [4] $end
$var wire 1 h tag_C_L1 [3] $end
$var wire 1 i tag_C_L1 [2] $end
$var wire 1 j tag_C_L1 [1] $end
$var wire 1 k tag_C_L1 [0] $end
$var wire 1 l index_C_L1 [4] $end
$var wire 1 m index_C_L1 [3] $end
$var wire 1 n index_C_L1 [2] $end
$var wire 1 o index_C_L1 [1] $end
$var wire 1 p index_C_L1 [0] $end
$var wire 1 q read_C_L1 $end
$var wire 1 r flush $end
$var wire 1 s ready_L2_L1 $end
$var wire 1 / stall $end
$var wire 1 0 refill $end
$var wire 1 1 read_L1_L2 $end
$var wire 1 3 index_L1_L2 [7] $end
$var wire 1 4 index_L1_L2 [6] $end
$var wire 1 5 index_L1_L2 [5] $end
$var wire 1 6 index_L1_L2 [4] $end
$var wire 1 7 index_L1_L2 [3] $end
$var wire 1 8 index_L1_L2 [2] $end
$var wire 1 9 index_L1_L2 [1] $end
$var wire 1 : index_L1_L2 [0] $end
$var wire 1 ; tag_L1_L2 [17] $end
$var wire 1 < tag_L1_L2 [16] $end
$var wire 1 = tag_L1_L2 [15] $end
$var wire 1 > tag_L1_L2 [14] $end
$var wire 1 ? tag_L1_L2 [13] $end
$var wire 1 @ tag_L1_L2 [12] $end
$var wire 1 A tag_L1_L2 [11] $end
$var wire 1 B tag_L1_L2 [10] $end
$var wire 1 C tag_L1_L2 [9] $end
$var wire 1 D tag_L1_L2 [8] $end
$var wire 1 E tag_L1_L2 [7] $end
$var wire 1 F tag_L1_L2 [6] $end
$var wire 1 G tag_L1_L2 [5] $end
$var wire 1 H tag_L1_L2 [4] $end
$var wire 1 I tag_L1_L2 [3] $end
$var wire 1 J tag_L1_L2 [2] $end
$var wire 1 K tag_L1_L2 [1] $end
$var wire 1 L tag_L1_L2 [0] $end
$var wire 1 2 way $end
$var reg 64 t valid [63:0] $end
$var reg 2 u state [1:0] $end
$var reg 2 v next_state [1:0] $end
$var reg 1 w miss $end
$var reg 1 x hit $end
$var reg 1 y read_C_L1_reg $end
$var reg 1 z refill_reg $end
$var reg 1 { read_L1_L2_reg $end
$var reg 32 | LRU_reg [31:0] $end
$var reg 1 } way_reg $end
$var reg 1 ~ check $end
$scope begin genblk1[63] $end
$var parameter 32 !! i $end
$upscope $end
$scope begin genblk1[62] $end
$var parameter 32 "! i $end
$upscope $end
$scope begin genblk1[61] $end
$var parameter 32 #! i $end
$upscope $end
$scope begin genblk1[60] $end
$var parameter 32 $! i $end
$upscope $end
$scope begin genblk1[59] $end
$var parameter 32 %! i $end
$upscope $end
$scope begin genblk1[58] $end
$var parameter 32 &! i $end
$upscope $end
$scope begin genblk1[57] $end
$var parameter 32 '! i $end
$upscope $end
$scope begin genblk1[56] $end
$var parameter 32 (! i $end
$upscope $end
$scope begin genblk1[55] $end
$var parameter 32 )! i $end
$upscope $end
$scope begin genblk1[54] $end
$var parameter 32 *! i $end
$upscope $end
$scope begin genblk1[53] $end
$var parameter 32 +! i $end
$upscope $end
$scope begin genblk1[52] $end
$var parameter 32 ,! i $end
$upscope $end
$scope begin genblk1[51] $end
$var parameter 32 -! i $end
$upscope $end
$scope begin genblk1[50] $end
$var parameter 32 .! i $end
$upscope $end
$scope begin genblk1[49] $end
$var parameter 32 /! i $end
$upscope $end
$scope begin genblk1[48] $end
$var parameter 32 0! i $end
$upscope $end
$scope begin genblk1[47] $end
$var parameter 32 1! i $end
$upscope $end
$scope begin genblk1[46] $end
$var parameter 32 2! i $end
$upscope $end
$scope begin genblk1[45] $end
$var parameter 32 3! i $end
$upscope $end
$scope begin genblk1[44] $end
$var parameter 32 4! i $end
$upscope $end
$scope begin genblk1[43] $end
$var parameter 32 5! i $end
$upscope $end
$scope begin genblk1[42] $end
$var parameter 32 6! i $end
$upscope $end
$scope begin genblk1[41] $end
$var parameter 32 7! i $end
$upscope $end
$scope begin genblk1[40] $end
$var parameter 32 8! i $end
$upscope $end
$scope begin genblk1[39] $end
$var parameter 32 9! i $end
$upscope $end
$scope begin genblk1[38] $end
$var parameter 32 :! i $end
$upscope $end
$scope begin genblk1[37] $end
$var parameter 32 ;! i $end
$upscope $end
$scope begin genblk1[36] $end
$var parameter 32 <! i $end
$upscope $end
$scope begin genblk1[35] $end
$var parameter 32 =! i $end
$upscope $end
$scope begin genblk1[34] $end
$var parameter 32 >! i $end
$upscope $end
$scope begin genblk1[33] $end
$var parameter 32 ?! i $end
$upscope $end
$scope begin genblk1[32] $end
$var parameter 32 @! i $end
$upscope $end
$scope begin genblk1[31] $end
$var parameter 32 A! i $end
$upscope $end
$scope begin genblk1[30] $end
$var parameter 32 B! i $end
$upscope $end
$scope begin genblk1[29] $end
$var parameter 32 C! i $end
$upscope $end
$scope begin genblk1[28] $end
$var parameter 32 D! i $end
$upscope $end
$scope begin genblk1[27] $end
$var parameter 32 E! i $end
$upscope $end
$scope begin genblk1[26] $end
$var parameter 32 F! i $end
$upscope $end
$scope begin genblk1[25] $end
$var parameter 32 G! i $end
$upscope $end
$scope begin genblk1[24] $end
$var parameter 32 H! i $end
$upscope $end
$scope begin genblk1[23] $end
$var parameter 32 I! i $end
$upscope $end
$scope begin genblk1[22] $end
$var parameter 32 J! i $end
$upscope $end
$scope begin genblk1[21] $end
$var parameter 32 K! i $end
$upscope $end
$scope begin genblk1[20] $end
$var parameter 32 L! i $end
$upscope $end
$scope begin genblk1[19] $end
$var parameter 32 M! i $end
$upscope $end
$scope begin genblk1[18] $end
$var parameter 32 N! i $end
$upscope $end
$scope begin genblk1[17] $end
$var parameter 32 O! i $end
$upscope $end
$scope begin genblk1[16] $end
$var parameter 32 P! i $end
$upscope $end
$scope begin genblk1[15] $end
$var parameter 32 Q! i $end
$upscope $end
$scope begin genblk1[14] $end
$var parameter 32 R! i $end
$upscope $end
$scope begin genblk1[13] $end
$var parameter 32 S! i $end
$upscope $end
$scope begin genblk1[12] $end
$var parameter 32 T! i $end
$upscope $end
$scope begin genblk1[11] $end
$var parameter 32 U! i $end
$upscope $end
$scope begin genblk1[10] $end
$var parameter 32 V! i $end
$upscope $end
$scope begin genblk1[9] $end
$var parameter 32 W! i $end
$upscope $end
$scope begin genblk1[8] $end
$var parameter 32 X! i $end
$upscope $end
$scope begin genblk1[7] $end
$var parameter 32 Y! i $end
$upscope $end
$scope begin genblk1[6] $end
$var parameter 32 Z! i $end
$upscope $end
$scope begin genblk1[5] $end
$var parameter 32 [! i $end
$upscope $end
$scope begin genblk1[4] $end
$var parameter 32 \! i $end
$upscope $end
$scope begin genblk1[3] $end
$var parameter 32 ]! i $end
$upscope $end
$scope begin genblk1[2] $end
$var parameter 32 ^! i $end
$upscope $end
$scope begin genblk1[1] $end
$var parameter 32 _! i $end
$upscope $end
$scope begin genblk1[0] $end
$var parameter 32 `! i $end
$upscope $end
$upscope $end
$upscope $end
$enddefinitions $end
#0
$dumpvars
1)
1*
b0 +
0,
0-
0.
bx t
bx u
bx v
0w
0x
xy
0z
0{
bx |
x}
x~
b1 !
b1 "
b1000000 #
b100000 $
b10101 %
b101 &
b10010 '
b1000 (
b0 R
b1 S
b11 T
b0 `!
b1 _!
b10 ^!
b11 ]!
b100 \!
b101 [!
b110 Z!
b111 Y!
b1000 X!
b1001 W!
b1010 V!
b1011 U!
b1100 T!
b1101 S!
b1110 R!
b1111 Q!
b10000 P!
b10001 O!
b10010 N!
b10011 M!
b10100 L!
b10101 K!
b10110 J!
b10111 I!
b11000 H!
b11001 G!
b11010 F!
b11011 E!
b11100 D!
b11101 C!
b11110 B!
b11111 A!
b100000 @!
b100001 ?!
b100010 >!
b100011 =!
b100100 <!
b100101 ;!
b100110 :!
b100111 9!
b101000 8!
b101001 7!
b101010 6!
b101011 5!
b101100 4!
b101101 3!
b101110 2!
b101111 1!
b110000 0!
b110001 /!
b110010 .!
b110011 -!
b110100 ,!
b110101 +!
b110110 *!
b110111 )!
b111000 (!
b111001 '!
b111010 &!
b111011 %!
b111100 $!
b111101 #!
b111110 "!
b111111 !!
bx M
bx N
b10000000000000000000000000000100 O
b10000000000000000000000000000101 P
b1 Q
x/
00
01
x2
0:
09
08
07
06
05
04
03
0L
0K
0J
0I
0H
0G
0F
0E
0D
0C
0B
0A
0@
0?
0>
0=
0<
0;
1U
1V
0k
0j
0i
0h
0g
0f
0e
0d
0c
0b
0a
0`
0_
0^
0]
0\
0[
0Z
0Y
0X
0W
0p
0o
0n
0m
0l
0q
0r
0s
$end
#1
0)
0U
#2
1)
1U
b0 M
b1 M
b10 M
b11 M
b100 M
b101 M
b110 M
b111 M
b1000 M
b1001 M
b1010 M
b1011 M
b1100 M
b1101 M
b1110 M
b1111 M
b10000 M
b10001 M
b10010 M
b10011 M
b10100 M
b10101 M
b10110 M
b10111 M
b11000 M
b11001 M
b11010 M
b11011 M
b11100 M
b11101 M
b11110 M
b11111 M
b100000 M
b100001 M
b100010 M
b100011 M
b100100 M
b100101 M
b100110 M
b100111 M
b101000 M
b101001 M
b101010 M
b101011 M
b101100 M
b101101 M
b101110 M
b101111 M
b110000 M
b110001 M
b110010 M
b110011 M
b110100 M
b110101 M
b110110 M
b110111 M
b111000 M
b111001 M
b111010 M
b111011 M
b111100 M
b111101 M
b111110 M
b111111 M
b1000000 M
b0 M
b1 M
b10 M
b11 M
b100 M
b101 M
b110 M
b111 M
b1000 M
b1001 M
b1010 M
b1011 M
b1100 M
b1101 M
b1110 M
b1111 M
b10000 M
b10001 M
b10010 M
b10011 M
b10100 M
b10101 M
b10110 M
b10111 M
b11000 M
b11001 M
b11010 M
b11011 M
b11100 M
b11101 M
b11110 M
b11111 M
b100000 M
b100001 M
b100010 M
b100011 M
b100100 M
b100101 M
b100110 M
b100111 M
b101000 M
b101001 M
b101010 M
b101011 M
b101100 M
b101101 M
b101110 M
b101111 M
b110000 M
b110001 M
b110010 M
b110011 M
b110100 M
b110101 M
b110110 M
b110111 M
b111000 M
b111001 M
b111010 M
b111011 M
b111100 M
b111101 M
b111110 M
b111111 M
b1000000 M
#3
0)
0U
#4
1)
1U
#5
0)
0U
#6
1)
1U
#7
0)
0U
#8
1)
1U
#9
0)
0U
#10
1)
1U
0*
0V
b0 u
0~
0}
b0 |
b0 t
0/
02
b0 v
#11
0)
0U
#12
1)
1U
#13
0)
0U
#14
1)
1U
#15
0)
0U
#16
1)
1U
#17
0)
0U
#18
1)
1U
#19
0)
0U
#20
1)
1U
1*
1,
b0 M
b11000111011001000101000000101000 +
1j
1h
1d
1a
1`
1^
1]
1\
1X
1W
1L
1H
1E
1D
1B
1A
1@
1<
1;
14
1V
1q
b1 v
#21
0)
0U
#22
1)
1U
b1 u
1/
#23
0)
0U
#24
1)
1U
1w
b11 v
#25
0)
0U
#26
1)
1U
b11 u
0w
#27
0)
0U
#28
1)
1U
1.
1s
1~
1{
b1 v
11
#29
0)
0U
#30
1)
1U
0.
0s
b1 u
b1 t
1z
b11 v
10
b1 v
#31
0)
0U
#32
1)
1U
1x
0z
0{
00
01
b0 v
#33
0)
0U
#34
1)
1U
b0 u
b1 |
0x
0/
b1 v
#35
0)
0U
#36
1)
1U
b1 M
b101010111101011000001011000 +
1p
1i
0h
1g
1e
1c
1b
0a
0]
0X
0W
0L
1K
1I
1G
1F
0E
0A
0<
0;
1:
13
b1 u
0~
1/
#37
0)
0U
#38
1)
1U
1w
b11 v
#39
0)
0U
#40
1)
1U
b11 u
0w
#41
0)
0U
#42
1)
1U
1~
1{
11
#43
0)
0U
#44
1)
1U
1.
1s
b1 v
#45
0)
0U
#46
1)
1U
0.
0s
b1 u
b101 t
1z
b11 v
10
b1 v
#47
0)
0U
#48
1)
1U
1x
0z
0{
00
01
b0 v
#49
0)
0U
#50
1)
1U
b0 u
b11 |
0x
0/
b1 v
#51
0)
0U
#52
1)
1U
b10 M
b10011000011000000000010110100 +
0p
1o
0j
0i
0g
0e
0b
0`
1]
0\
1Z
0K
0I
0F
0D
1A
0@
1>
0:
19
04
03
b1 u
0~
1/
#53
0)
0U
#54
1)
1U
1w
b11 v
#55
0)
0U
#56
1)
1U
b11 u
0w
#57
0)
0U
#58
1)
1U
1~
1{
11
#59
0)
0U
#60
1)
1U
1.
1s
b1 v
#61
0)
0U
#62
1)
1U
0.
0s
b1 u
b10101 t
1z
b11 v
10
b1 v
#63
0)
0U
#64
1)
1U
1x
0z
0{
00
01
b0 v
#65
0)
0U
#66
1)
1U
b0 u
b111 |
0x
0/
b1 v
#67
0)
0U
#68
1)
1U
b11 M
b1101011100010111010000011011100 +
1p
1i
1g
1f
1e
0d
1_
1[
0Z
1Y
1X
1K
1J
1I
0H
1C
1?
0>
1=
1<
1:
13
b1 u
0~
1/
#69
0)
0U
#70
1)
1U
1w
b11 v
#71
0)
0U
#72
1)
1U
b11 u
0w
#73
0)
0U
#74
1)
1U
1~
1{
11
#75
0)
0U
#76
1)
1U
1.
1s
b1 v
#77
0)
0U
#78
1)
1U
0.
0s
b1 u
b1010101 t
1z
b11 v
10
b1 v
#79
0)
0U
#80
1)
1U
1x
0z
0{
00
01
b0 v
#81
0)
0U
#82
1)
1U
b0 u
b1111 |
0x
0/
b1 v
#83
0)
0U
#84
1)
1U
b100 M
b10001111001111111101000100111000 +
0p
0o
1n
1j
0i
1h
1d
1b
1a
0_
1\
0Y
0X
1W
1L
1H
1F
1E
0C
1@
0=
0<
1;
0:
09
18
14
03
b1 u
0~
1/
#85
0)
0U
#86
1)
1U
1w
b11 v
#87
0)
0U
#88
1)
1U
b11 u
0w
#89
0)
0U
#90
1)
1U
1~
1{
11
#91
0)
0U
#92
1)
1U
1.
1s
b1 v
#93
0)
0U
#94
1)
1U
0.
0s
b1 u
b101010101 t
1z
b11 v
10
b1 v
#95
0)
0U
#96
1)
1U
1x
0z
0{
00
01
b0 v
#97
0)
0U
#98
1)
1U
b0 u
b11111 |
0x
0/
b1 v
#99
0)
0U
#100
1)
1U
b101 M
b1100010101011100011000101110100 +
1p
1i
0h
0g
0f
0b
1_
0^
0\
0[
1Y
1X
0W
0L
0K
0J
0F
1C
0B
0@
0?
1=
1<
0;
1:
13
b1 u
0~
1/
#101
0)
0U
#102
1)
1U
1w
b11 v
#103
0)
0U
#104
1)
1U
b11 u
0w
#105
0)
0U
#106
1)
1U
1~
1{
11
#107
0)
0U
#108
1)
1U
1.
1s
b1 v
#109
0)
0U
#110
1)
1U
0.
0s
b1 u
b10101010101 t
1z
b11 v
10
b1 v
#111
0)
0U
#112
1)
1U
1x
0z
0{
00
01
b0 v
#113
0)
0U
#114
1)
1U
b0 u
b111111 |
0x
0/
b1 v
#115
0)
0U
#116
1)
1U
b110 M
b11000011110000001011000110110100 +
0p
1o
1g
0e
0d
0c
0a
1`
1^
0Y
1W
1K
0I
0H
0G
0E
1D
1B
0=
1;
0:
19
b1 u
0~
1/
#117
0)
0U
#118
1)
1U
1w
b11 v
#119
0)
0U
#120
1)
1U
b11 u
0w
#121
0)
0U
#122
1)
1U
1~
1{
11
#123
0)
0U
#124
1)
1U
1.
1s
b1 v
#125
0)
0U
#126
1)
1U
0.
0s
b1 u
b1010101010101 t
1z
b11 v
10
b1 v
#127
0)
0U
#128
1)
1U
1x
0z
0{
00
01
b0 v
#129
0)
0U
#130
1)
1U
b0 u
b1111111 |
0x
0/
b1 v
#131
0)
0U
#132
1)
1U
b111 M
b11101101001101000000000111100000 +
1p
0j
0i
0g
1d
1b
1a
0`
0_
0]
1\
1[
1Y
0K
1H
1F
1E
0D
0C
0A
1@
1?
1=
1:
04
03
b1 u
0~
1/
#133
0)
0U
#134
1)
1U
1w
b11 v
#135
0)
0U
#136
1)
1U
b11 u
0w
#137
0)
0U
#138
1)
1U
1~
1{
11
#139
0)
0U
#140
1)
1U
1.
1s
b1 v
#141
0)
0U
#142
1)
1U
0.
0s
b1 u
b101010101010101 t
1z
b11 v
10
b1 v
#143
0)
0U
#144
1)
1U
1x
0z
0{
00
01
b0 v
#145
0)
0U
#146
1)
1U
b0 u
b11111111 |
0x
0/
b1 v
#147
0)
0U
#148
1)
1U
b1000 M
b10100011101010001011001000010000 +
0p
0o
0n
1m
1j
1i
1g
0d
1c
0b
1_
1]
0\
0[
0X
1K
0H
1G
0F
1C
1A
0@
0?
0<
0:
09
08
17
14
13
b1 u
0~
1/
#149
0)
0U
#150
1)
1U
1w
b11 v
#151
0)
0U
#152
1)
1U
b11 u
0w
#153
0)
0U
#154
1)
1U
1~
1{
11
#155
0)
0U
#156
1)
1U
1.
1s
b1 v
#157
0)
0U
#158
1)
1U
0.
0s
b1 u
b10101010101010101 t
1z
b11 v
10
b1 v
#159
0)
0U
#160
1)
1U
1x
0z
0{
00
01
b0 v
#161
0)
0U
#162
1)
1U
b0 u
b111111111 |
0x
0/
b1 v
#163
0)
0U
#164
1)
1U
b1001 M
b10011000011000001001001001101100 +
1p
0i
0c
1`
0_
0^
0]
1[
1Z
0Y
0G
1D
0C
0B
0A
1?
1>
0=
1:
03
b1 u
0~
1/
#165
0)
0U
#166
1)
1U
1w
b11 v
#167
0)
0U
#168
1)
1U
b11 u
0w
#169
0)
0U
#170
1)
1U
1~
1{
11
#171
0)
0U
#172
1)
1U
1.
1s
b1 v
#173
0)
0U
#174
1)
1U
0.
0s
b1 u
b1010101010101010101 t
1z
b11 v
10
b1 v
#175
0)
0U
#176
1)
1U
1x
0z
0{
00
01
b0 v
#177
0)
0U
#178
1)
1U
b0 u
b1111111111 |
0x
0/
b1 v
#179
0)
0U
#180
1)
1U
b1010 M
b10111010110111000100001010001000 +
0p
1o
0j
1h
0g
1d
1c
1b
0a
1_
1]
1Y
1L
0K
1H
1G
1F
0E
1C
1A
1=
0:
19
04
b1 u
0~
1/
#181
0)
0U
#182
1)
1U
1w
b11 v
#183
0)
0U
#184
1)
1U
b11 u
0w
#185
0)
0U
#186
1)
1U
1~
1{
11
#187
0)
0U
#188
1)
1U
1.
1s
b1 v
#189
0)
0U
#190
1)
1U
0.
0s
b1 u
b101010101010101010101 t
1z
b11 v
10
b1 v
#191
0)
0U
#192
1)
1U
1x
0z
0{
00
01
b0 v
#193
0)
0U
#194
1)
1U
b0 u
b11111111111 |
0x
0/
b1 v
#195
0)
0U
#196
1)
1U
b1011 M
b11111110000011000001001011111100 +
1p
1j
0h
0b
0`
0_
1\
1X
0L
0F
0D
0C
1@
1<
1:
14
b1 u
0~
1/
#197
0)
0U
#198
1)
1U
1w
b11 v
#199
0)
0U
#200
1)
1U
b11 u
0w
#201
0)
0U
#202
1)
1U
1~
1{
11
#203
0)
0U
#204
1)
1U
1.
1s
b1 v
#205
0)
0U
#206
1)
1U
0.
0s
b1 u
b10101010101010101010101 t
1z
b11 v
10
b1 v
#207
0)
0U
#208
1)
1U
1x
0z
0{
00
01
b0 v
#209
0)
0U
#210
1)
1U
b0 u
b111111111111 |
0x
0/
b1 v
#211
0)
0U
#212
1)
1U
b1100 M
b10100100000001111001001100011100 +
0p
0o
1n
1g
1f
1e
0c
0]
0[
0Z
0X
1K
1J
1I
0G
0A
0?
0>
0<
0:
09
18
b1 u
0~
1/
#213
0)
0U
#214
1)
1U
1w
b11 v
#215
0)
0U
#216
1)
1U
b11 u
0w
#217
0)
0U
#218
1)
1U
1~
1{
11
#219
0)
0U
#220
1)
1U
1.
1s
b1 v
#221
0)
0U
#222
1)
1U
0.
0s
b1 u
b1010101010101010101010101 t
1z
b11 v
10
b1 v
#223
0)
0U
#224
1)
1U
1x
0z
0{
00
01
b0 v
#225
0)
0U
#226
1)
1U
b0 u
b1111111111111 |
0x
0/
b1 v
#227
0)
0U
#228
1)
1U
b1101 M
b1101011101001100101001101101100 +
1p
1h
0g
0f
1a
1_
1^
1]
0\
1[
1X
0W
1L
0K
0J
1E
1C
1B
1A
0@
1?
1<
0;
1:
b1 u
0~
1/
#229
0)
0U
#230
1)
1U
1w
b11 v
#231
0)
0U
#232
1)
1U
b11 u
0w
#233
0)
0U
#234
1)
1U
1~
1{
11
#235
0)
0U
#236
1)
1U
1.
1s
b1 v
#237
0)
0U
#238
1)
1U
0.
0s
b1 u
b101010101010101010101010101 t
1z
b11 v
10
b1 v
#239
0)
0U
#240
1)
1U
1x
0z
0{
00
01
b0 v
#241
0)
0U
#242
1)
1U
b0 u
b11111111111111 |
0x
0/
b1 v
#243
0)
0U
#244
1)
1U
b1110 M
b11101000011010010001110110100 +
0p
1o
0j
1i
0h
1f
0e
1c
0a
0_
0]
1\
1Z
0Y
0X
0L
1J
0I
1G
0E
0C
0A
1@
1>
0=
0<
0:
19
04
13
b1 u
0~
1/
#245
0)
0U
#246
1)
1U
1w
b11 v
#247
0)
0U
#248
1)
1U
b11 u
0w
#249
0)
0U
#250
1)
1U
1~
1{
11
#251
0)
0U
#252
1)
1U
1.
1s
b1 v
#253
0)
0U
#254
1)
1U
0.
0s
b1 u
b10101010101010101010101010101 t
1z
b11 v
10
b1 v
#255
0)
0U
#256
1)
1U
1x
0z
0{
00
01
b0 v
#257
0)
0U
#258
1)
1U
b0 u
b111111111111111 |
0x
0/
b1 v
#259
0)
0U
#260
1)
1U
b1111 M
b10110111011101101110001111110100 +
1p
1h
1g
0f
1e
0c
1b
1a
1`
1]
0[
1Y
1W
1L
1K
0J
1I
0G
1F
1E
1D
1A
0?
1=
1;
1:
b1 u
0~
1/
#261
0)
0U
#262
1)
1U
1w
b11 v
#263
0)
0U
#264
1)
1U
b11 u
0w
#265
0)
0U
#266
1)
1U
1~
1{
11
#267
0)
0U
#268
1)
1U
1.
1s
b1 v
#269
0)
0U
#270
1)
1U
0.
0s
b1 u
b1010101010101010101010101010101 t
1z
b11 v
10
b1 v
#271
0)
0U
#272
1)
1U
1x
0z
0{
00
01
b0 v
#273
0)
0U
#274
1)
1U
b0 u
b1111111111111111 |
0x
0/
b1 v
#275
0)
0U
#276
1)
1U
b10000 M
b11111010011110100001010000101100 +
0p
0o
0n
0m
1l
1j
0i
0h
0g
0d
1c
0^
0\
1[
1X
0L
0K
0H
1G
0B
0@
1?
1<
0:
09
08
07
16
14
03
b1 u
0~
1/
#277
0)
0U
#278
1)
1U
1w
b11 v
#279
0)
0U
#280
1)
1U
b11 u
0w
#281
0)
0U
#282
1)
1U
1~
1{
11
#283
0)
0U
#284
1)
1U
1.
1s
b1 v
#285
0)
0U
#286
1)
1U
0.
0s
b1 u
b101010101010101010101010101010101 t
1z
b11 v
10
b1 v
#287
0)
0U
#288
1)
1U
1x
0z
0{
00
01
b0 v
#289
0)
0U
#290
1)
1U
b0 u
b11111111111111111 |
0x
0/
b1 v
#291
0)
0U
#292
1)
1U
b10001 M
b11101011001011000100010001110100 +
1p
0j
1h
0e
1d
0b
0`
1^
0Z
1L
0I
1H
0F
0D
1B
0>
1:
04
b1 u
0~
1/
#293
0)
0U
#294
1)
1U
1w
b11 v
#295
0)
0U
#296
1)
1U
b11 u
0w
#297
0)
0U
#298
1)
1U
1~
1{
11
#299
0)
0U
#300
1)
1U
1.
1s
b1 v
#301
0)
0U
#302
1)
1U
0.
0s
b1 u
b10101010101010101010101010101010101 t
1z
b11 v
10
b1 v
#303
0)
0U
#304
1)
1U
1x
0z
0{
00
01
b0 v
#305
0)
0U
#306
1)
1U
b0 u
b111111111111111111 |
0x
0/
b1 v
#307
0)
0U
#308
1)
1U
b10010 M
b10100010010110101111010010110100 +
0p
1o
1j
1i
1g
1e
0d
1b
0a
1`
0^
0[
0X
1K
1I
0H
1F
0E
1D
0B
0?
0<
0:
19
14
13
b1 u
0~
1/
#309
0)
0U
#310
1)
1U
1w
b11 v
#311
0)
0U
#312
1)
1U
b11 u
0w
#313
0)
0U
#314
1)
1U
1~
1{
11
#315
0)
0U
#316
1)
1U
1.
1s
b1 v
#317
0)
0U
#318
1)
1U
0.
0s
b1 u
b1010101010101010101010101010101010101 t
1z
b11 v
10
b1 v
#319
0)
0U
#320
1)
1U
1x
0z
0{
00
01
b0 v
#321
0)
0U
#322
1)
1U
b0 u
b1111111111111111111 |
0x
0/
b1 v
#323
0)
0U
#324
1)
1U
b10011 M
b11011100100000111110010011111000 +
1p
0j
1f
0c
0b
0`
1_
0]
1\
1[
1Z
0Y
1X
1J
0G
0F
0D
1C
0A
1@
1?
1>
0=
1<
1:
04
b1 u
0~
1/
#325
0)
0U
#326
1)
1U
1w
b11 v
#327
0)
0U
#328
1)
1U
b11 u
0w
#329
0)
0U
#330
1)
1U
1~
1{
11
#331
0)
0U
#332
1)
1U
1.
1s
b1 v
#333
0)
0U
#334
1)
1U
0.
0s
b1 u
b101010101010101010101010101010101010101 t
1z
b11 v
10
b1 v
#335
0)
0U
#336
1)
1U
1x
0z
0{
00
01
b0 v
#337
0)
0U
#338
1)
1U
b0 u
b11111111111111111111 |
0x
0/
b1 v
#339
0)
0U
#340
1)
1U
b10100 M
b1110101001001000111010100001100 +
0p
0o
1n
1j
0g
0f
0e
1d
1a
0_
1^
0[
1Y
0W
0K
0J
0I
1H
1E
0C
1B
0?
1=
0;
0:
09
18
14
b1 u
0~
1/
#341
0)
0U
#342
1)
1U
1w
b11 v
#343
0)
0U
#344
1)
1U
b11 u
0w
#345
0)
0U
#346
1)
1U
1~
1{
11
#347
0)
0U
#348
1)
1U
1.
1s
b1 v
#349
0)
0U
#350
1)
1U
0.
0s
b1 u
b10101010101010101010101010101010101010101 t
1z
b11 v
10
b1 v
#351
0)
0U
#352
1)
1U
1x
0z
0{
00
01
b0 v
#353
0)
0U
#354
1)
1U
b0 u
b111111111111111111111 |
0x
0/
b1 v
#355
0)
0U
#356
1)
1U
b10101 M
b11011101111010010111010101110000 +
1p
1f
0d
1c
1`
1_
1[
0Y
1W
1J
0H
1G
1D
1C
1?
0=
1;
1:
b1 u
0~
1/
#357
0)
0U
#358
1)
1U
1w
b11 v
#359
0)
0U
#360
1)
1U
b11 u
0w
#361
0)
0U
#362
1)
1U
1~
1{
11
#363
0)
0U
#364
1)
1U
1.
1s
b1 v
#365
0)
0U
#366
1)
1U
0.
0s
b1 u
b1010101010101010101010101010101010101010101 t
1z
b11 v
10
b1 v
#367
0)
0U
#368
1)
1U
1x
0z
0{
00
01
b0 v
#369
0)
0U
#370
1)
1U
b0 u
b1111111111111111111111 |
0x
0/
b1 v
#371
0)
0U
#372
1)
1U
b10110 M
b1010111101100111011010110101100 +
0p
1o
0h
1g
1e
0c
1b
0`
1]
0[
0W
0L
1K
1I
0G
1F
0D
1A
0?
0;
0:
19
b1 u
0~
1/
#373
0)
0U
#374
1)
1U
1w
b11 v
#375
0)
0U
#376
1)
1U
b11 u
0w
#377
0)
0U
#378
1)
1U
1~
1{
11
#379
0)
0U
#380
1)
1U
1.
1s
b1 v
#381
0)
0U
