modelsim/tb_L1_I_controller.vcd
$date
	Thu Apr 04 15:28:40 2024
$end
$version
	ModelSim Version 10.1c
$end
$timescale
	1ns
$end
$scope module tb_L1_I_controller $end
$var parameter 32 ! L1_CLK $end
$var parameter 32 " L2_CLK $end
$var parameter 32 # TOTAL $end
$var parameter 32 $ INIT $end
$var parameter 32 % TNUM $end
$var parameter 32 & INUM $end
$var reg 1 ' clk $end
$var reg 1 ( nrst $end
$var reg 32 ) address [31:0] $end
$var reg 1 * read_C_L1 $end
$var reg 1 + flush $end
$var reg 1 , ready_L2_L1 $end
$var wire 1 - stall $end
$var wire 1 . refill $end
$var wire 1 / read_L1_L2 $end
$var wire 1 0 way $end
$var wire 1 1 index_L1_L2 [4] $end
$var wire 1 2 index_L1_L2 [3] $end
$var wire 1 3 index_L1_L2 [2] $end
$var wire 1 4 index_L1_L2 [1] $end
$var wire 1 5 index_L1_L2 [0] $end
$var wire 1 6 tag_L1_L2 [20] $end
$var wire 1 7 tag_L1_L2 [19] $end
$var wire 1 8 tag_L1_L2 [18] $end
$var wire 1 9 tag_L1_L2 [17] $end
$var wire 1 : tag_L1_L2 [16] $end
$var wire 1 ; tag_L1_L2 [15] $end
$var wire 1 < tag_L1_L2 [14] $end
$var wire 1 = tag_L1_L2 [13] $end
$var wire 1 > tag_L1_L2 [12] $end
$var wire 1 ? tag_L1_L2 [11] $end
$var wire 1 @ tag_L1_L2 [10] $end
$var wire 1 A tag_L1_L2 [9] $end
$var wire 1 B tag_L1_L2 [8] $end
$var wire 1 C tag_L1_L2 [7] $end
$var wire 1 D tag_L1_L2 [6] $end
$var wire 1 E tag_L1_L2 [5] $end
$var wire 1 F tag_L1_L2 [4] $end
$var wire 1 G tag_L1_L2 [3] $end
$var wire 1 H tag_L1_L2 [2] $end
$var wire 1 I tag_L1_L2 [1] $end
$var wire 1 J tag_L1_L2 [0] $end
$var integer 32 K i $end
$var integer 32 L j $end
$var integer 32 M aa $end
$var integer 32 N ra $end
$var integer 32 O test_state $end
$scope begin init $end
$upscope $end
$scope begin test $end
$upscope $end
$scope module u_L1_I_controller $end
$var parameter 2 P S_IDLE $end
$var parameter 2 Q S_COMPARE $end
$var parameter 2 R S_ALLOCATE $end
$var wire 1 S clk $end
$var wire 1 T nrst $end
$var wire 1 U tag_C_L1 [20] $end
$var wire 1 V tag_C_L1 [19] $end
$var wire 1 W tag_C_L1 [18] $end
$var wire 1 X tag_C_L1 [17] $end
$var wire 1 Y tag_C_L1 [16] $end
$var wire 1 Z tag_C_L1 [15] $end
$var wire 1 [ tag_C_L1 [14] $end
$var wire 1 \ tag_C_L1 [13] $end
$var wire 1 ] tag_C_L1 [12] $end
$var wire 1 ^ tag_C_L1 [11] $end
$var wire 1 _ tag_C_L1 [10] $end
$var wire 1 ` tag_C_L1 [9] $end
$var wire 1 a tag_C_L1 [8] $end
$var wire 1 b tag_C_L1 [7] $end
$var wire 1 c tag_C_L1 [6] $end
$var wire 1 d tag_C_L1 [5] $end
$var wire 1 e tag_C_L1 [4] $end
$var wire 1 f tag_C_L1 [3] $end
$var wire 1 g tag_C_L1 [2] $end
$var wire 1 h tag_C_L1 [1] $end
$var wire 1 i tag_C_L1 [0] $end
$var wire 1 j index_C_L1 [4] $end
$var wire 1 k index_C_L1 [3] $end
$var wire 1 l index_C_L1 [2] $end
$var wire 1 m index_C_L1 [1] $end
$var wire 1 n index_C_L1 [0] $end
$var wire 1 o read_C_L1 $end
$var wire 1 p flush $end
$var wire 1 q ready_L2_L1 $end
$var wire 1 - stall $end
$var wire 1 . refill $end
$var wire 1 / read_L1_L2 $end
$var wire 1 1 index_L1_L2 [4] $end
$var wire 1 2 index_L1_L2 [3] $end
$var wire 1 3 index_L1_L2 [2] $end
$var wire 1 4 index_L1_L2 [1] $end
$var wire 1 5 index_L1_L2 [0] $end
$var wire 1 6 tag_L1_L2 [20] $end
$var wire 1 7 tag_L1_L2 [19] $end
$var wire 1 8 tag_L1_L2 [18] $end
$var wire 1 9 tag_L1_L2 [17] $end
$var wire 1 : tag_L1_L2 [16] $end
$var wire 1 ; tag_L1_L2 [15] $end
$var wire 1 < tag_L1_L2 [14] $end
$var wire 1 = tag_L1_L2 [13] $end
$var wire 1 > tag_L1_L2 [12] $end
$var wire 1 ? tag_L1_L2 [11] $end
$var wire 1 @ tag_L1_L2 [10] $end
$var wire 1 A tag_L1_L2 [9] $end
$var wire 1 B tag_L1_L2 [8] $end
$var wire 1 C tag_L1_L2 [7] $end
$var wire 1 D tag_L1_L2 [6] $end
$var wire 1 E tag_L1_L2 [5] $end
$var wire 1 F tag_L1_L2 [4] $end
$var wire 1 G tag_L1_L2 [3] $end
$var wire 1 H tag_L1_L2 [2] $end
$var wire 1 I tag_L1_L2 [1] $end
$var wire 1 J tag_L1_L2 [0] $end
$var wire 1 0 way $end
$var reg 64 r valid [63:0] $end
$var reg 2 s state [1:0] $end
$var reg 2 t next_state [1:0] $end
$var reg 1 u miss $end
$var reg 1 v hit $end
$var reg 1 w read_C_L1_reg $end
$var reg 1 x refill_reg $end
$var reg 1 y read_L1_L2_reg $end
$var reg 32 z LRU_reg [31:0] $end
$var reg 1 { way_reg $end
$var reg 1 | check $end
$scope begin genblk1[63] $end
$var parameter 32 } i $end
$upscope $end
$scope begin genblk1[62] $end
$var parameter 32 ~ i $end
$upscope $end
$scope begin genblk1[61] $end
$var parameter 32 !! i $end
$upscope $end
$scope begin genblk1[60] $end
$var parameter 32 "! i $end
$upscope $end
$scope begin genblk1[59] $end
$var parameter 32 #! i $end
$upscope $end
$scope begin genblk1[58] $end
$var parameter 32 $! i $end
$upscope $end
$scope begin genblk1[57] $end
$var parameter 32 %! i $end
$upscope $end
$scope begin genblk1[56] $end
$var parameter 32 &! i $end
$upscope $end
$scope begin genblk1[55] $end
$var parameter 32 '! i $end
$upscope $end
$scope begin genblk1[54] $end
$var parameter 32 (! i $end
$upscope $end
$scope begin genblk1[53] $end
$var parameter 32 )! i $end
$upscope $end
$scope begin genblk1[52] $end
$var parameter 32 *! i $end
$upscope $end
$scope begin genblk1[51] $end
$var parameter 32 +! i $end
$upscope $end
$scope begin genblk1[50] $end
$var parameter 32 ,! i $end
$upscope $end
$scope begin genblk1[49] $end
$var parameter 32 -! i $end
$upscope $end
$scope begin genblk1[48] $end
$var parameter 32 .! i $end
$upscope $end
$scope begin genblk1[47] $end
$var parameter 32 /! i $end
$upscope $end
$scope begin genblk1[46] $end
$var parameter 32 0! i $end
$upscope $end
$scope begin genblk1[45] $end
$var parameter 32 1! i $end
$upscope $end
$scope begin genblk1[44] $end
$var parameter 32 2! i $end
$upscope $end
$scope begin genblk1[43] $end
$var parameter 32 3! i $end
$upscope $end
$scope begin genblk1[42] $end
$var parameter 32 4! i $end
$upscope $end
$scope begin genblk1[41] $end
$var parameter 32 5! i $end
$upscope $end
$scope begin genblk1[40] $end
$var parameter 32 6! i $end
$upscope $end
$scope begin genblk1[39] $end
$var parameter 32 7! i $end
$upscope $end
$scope begin genblk1[38] $end
$var parameter 32 8! i $end
$upscope $end
$scope begin genblk1[37] $end
$var parameter 32 9! i $end
$upscope $end
$scope begin genblk1[36] $end
$var parameter 32 :! i $end
$upscope $end
$scope begin genblk1[35] $end
$var parameter 32 ;! i $end
$upscope $end
$scope begin genblk1[34] $end
$var parameter 32 <! i $end
$upscope $end
$scope begin genblk1[33] $end
$var parameter 32 =! i $end
$upscope $end
$scope begin genblk1[32] $end
$var parameter 32 >! i $end
$upscope $end
$scope begin genblk1[31] $end
$var parameter 32 ?! i $end
$upscope $end
$scope begin genblk1[30] $end
$var parameter 32 @! i $end
$upscope $end
$scope begin genblk1[29] $end
$var parameter 32 A! i $end
$upscope $end
$scope begin genblk1[28] $end
$var parameter 32 B! i $end
$upscope $end
$scope begin genblk1[27] $end
$var parameter 32 C! i $end
$upscope $end
$scope begin genblk1[26] $end
$var parameter 32 D! i $end
$upscope $end
$scope begin genblk1[25] $end
$var parameter 32 E! i $end
$upscope $end
$scope begin genblk1[24] $end
$var parameter 32 F! i $end
$upscope $end
$scope begin genblk1[23] $end
$var parameter 32 G! i $end
$upscope $end
$scope begin genblk1[22] $end
$var parameter 32 H! i $end
$upscope $end
$scope begin genblk1[21] $end
$var parameter 32 I! i $end
$upscope $end
$scope begin genblk1[20] $end
$var parameter 32 J! i $end
$upscope $end
$scope begin genblk1[19] $end
$var parameter 32 K! i $end
$upscope $end
$scope begin genblk1[18] $end
$var parameter 32 L! i $end
$upscope $end
$scope begin genblk1[17] $end
$var parameter 32 M! i $end
$upscope $end
$scope begin genblk1[16] $end
$var parameter 32 N! i $end
$upscope $end
$scope begin genblk1[15] $end
$var parameter 32 O! i $end
$upscope $end
$scope begin genblk1[14] $end
$var parameter 32 P! i $end
$upscope $end
$scope begin genblk1[13] $end
$var parameter 32 Q! i $end
$upscope $end
$scope begin genblk1[12] $end
$var parameter 32 R! i $end
$upscope $end
$scope begin genblk1[11] $end
$var parameter 32 S! i $end
$upscope $end
$scope begin genblk1[10] $end
$var parameter 32 T! i $end
$upscope $end
$scope begin genblk1[9] $end
$var parameter 32 U! i $end
$upscope $end
$scope begin genblk1[8] $end
$var parameter 32 V! i $end
$upscope $end
$scope begin genblk1[7] $end
$var parameter 32 W! i $end
$upscope $end
$scope begin genblk1[6] $end
$var parameter 32 X! i $end
$upscope $end
$scope begin genblk1[5] $end
$var parameter 32 Y! i $end
$upscope $end
$scope begin genblk1[4] $end
$var parameter 32 Z! i $end
$upscope $end
$scope begin genblk1[3] $end
$var parameter 32 [! i $end
$upscope $end
$scope begin genblk1[2] $end
$var parameter 32 \! i $end
$upscope $end
$scope begin genblk1[1] $end
$var parameter 32 ]! i $end
$upscope $end
$scope begin genblk1[0] $end
$var parameter 32 ^! i $end
$upscope $end
$upscope $end
$upscope $end
$enddefinitions $end
#0
$dumpvars
1'
1(
b0 )
0*
0+
0,
bx r
bx s
bx t
0u
0v
xw
0x
0y
bx z
x{
x|
b1 !
b10 "
b10011100010000 #
b11110 $
b10101 %
b101 &
b0 P
b1 Q
b11 R
b0 ^!
b1 ]!
b10 \!
b11 [!
b100 Z!
b101 Y!
b110 X!
b111 W!
b1000 V!
b1001 U!
b1010 T!
b1011 S!
b1100 R!
b1101 Q!
b1110 P!
b1111 O!
b10000 N!
b10001 M!
b10010 L!
b10011 K!
b10100 J!
b10101 I!
b10110 H!
b10111 G!
b11000 F!
b11001 E!
b11010 D!
b11011 C!
b11100 B!
b11101 A!
b11110 @!
b11111 ?!
b100000 >!
b100001 =!
b100010 <!
b100011 ;!
b100100 :!
b100101 9!
b100110 8!
b100111 7!
b101000 6!
b101001 5!
b101010 4!
b101011 3!
b101100 2!
b101101 1!
b101110 0!
b101111 /!
b110000 .!
b110001 -!
b110010 ,!
b110011 +!
b110100 *!
b110101 )!
b110110 (!
b110111 '!
b111000 &!
b111001 %!
b111010 $!
b111011 #!
b111100 "!
b111101 !!
b111110 ~
b111111 }
bx K
bx L
b10000000000000000000000000000100 M
b10000000000000000000000000000101 N
b0 O
1S
1T
0i
0h
0g
0f
0e
0d
0c
0b
0a
0`
0_
0^
0]
0\
0[
0Z
0Y
0X
0W
0V
0U
0n
0m
0l
0k
0j
0o
0p
0q
x-
0.
0/
x0
05
04
03
02
01
0J
0I
0H
0G
0F
0E
0D
0C
0B
0A
0@
0?
0>
0=
0<
0;
0:
09
08
07
06
$end
#1
0'
0S
#2
1'
1S
b0 K
b1 K
b10 K
b11 K
b100 K
b101 K
b110 K
b111 K
b1000 K
b1001 K
b1010 K
b1011 K
b1100 K
b1101 K
b1110 K
b1111 K
b10000 K
b10001 K
b10010 K
b10011 K
b10100 K
b10101 K
b10110 K
b10111 K
b11000 K
b11001 K
b11010 K
b11011 K
b11100 K
b11101 K
b11110 K
b11111 K
b100000 K
b100001 K
b100010 K
b100011 K
b100100 K
b100101 K
b100110 K
b100111 K
b101000 K
b101001 K
b101010 K
b101011 K
b101100 K
b101101 K
b101110 K
b101111 K
b110000 K
b110001 K
b110010 K
b110011 K
b110100 K
b110101 K
b110110 K
b110111 K
b111000 K
b111001 K
b111010 K
b111011 K
b111100 K
b0 K
b1 K
b10 K
b11 K
b100 K
b101 K
b110 K
b111 K
b1000 K
b1001 K
b1010 K
b1011 K
b1100 K
b1101 K
b1110 K
b1111 K
b10000 K
b10001 K
b10010 K
b10011 K
b10100 K
b10101 K
b10110 K
b10111 K
b11000 K
b11001 K
b11010 K
b11011 K
b11100 K
b11101 K
b11110 K
b11111 K
b100000 K
b100001 K
b100010 K
b100011 K
b100100 K
b100101 K
b100110 K
b100111 K
b101000 K
b101001 K
b101010 K
b101011 K
b101100 K
b101101 K
b101110 K
b101111 K
b110000 K
b110001 K
b110010 K
b110011 K
b110100 K
b110101 K
b110110 K
b110111 K
b111000 K
b111001 K
b111010 K
b111011 K
b111100 K
#3
0'
0S
#4
1'
1S
#5
0'
0S
#6
1'
1S
#7
0'
0S
#8
1'
1S
#9
0'
0S
#10
1'
1S
0(
0T
b0 s
0|
0{
b0 z
b0 r
0-
00
b0 t
#11
0'
0S
#12
1'
1S
#13
0'
0S
#14
1'
1S
#15
0'
0S
#16
1'
1S
#17
0'
0S
#18
1'
1S
#19
0'
0S
#20
1'
1S
1(
1*
b0 K
b11000111011001000101000000101000 )
1h
1f
1b
1_
1^
1\
1[
1Z
1V
1U
1I
1G
1C
1@
1?
1=
1<
1;
17
16
1T
1o
b1 t
#21
0'
0S
#22
1'
1S
b1 s
1-
#23
0'
0S
#24
1'
1S
1u
b11 t
#25
0'
0S
#26
1'
1S
b11 s
0u
#27
0'
0S
#28
1'
1S
1,
1q
1|
1y
b1 t
1/
#29
0'
0S
#30
1'
1S
0,
0q
b1 s
b1 r
1x
b11 t
1.
b1 t
#31
0'
0S
#32
1'
1S
1v
0x
0y
0.
0/
b0 t
#33
0'
0S
#34
1'
1S
b0 s
b1 z
0v
0-
b1 t
#35
0'
0S
#36
1'
1S
b1 K
b101010111101011000001011000 )
1n
1g
0f
1e
1c
1a
1`
0_
0[
0V
0U
1H
0G
1F
1D
1B
1A
0@
0<
07
06
15
b1 s
0|
1-
#37
0'
0S
#38
1'
1S
1u
b11 t
#39
0'
0S
#40
1'
1S
b11 s
0u
#41
0'
0S
#42
1'
1S
1|
1y
1/
#43
0'
0S
#44
1'
1S
1,
1q
b1 t
#45
0'
0S
#46
1'
1S
0,
0q
b1 s
b101 r
1x
b11 t
1.
b1 t
#47
0'
0S
#48
1'
1S
1v
0x
0y
0.
0/
b0 t
#49
0'
0S
#50
1'
1S
b0 s
b11 z
0v
0-
b1 t
#51
0'
0S
#52
1'
1S
b10 K
b10011000011000000000010110100 )
0n
1m
0h
0g
0e
0c
0`
0^
1[
0Z
1X
0I
0H
0F
0D
0A
0?
1<
0;
19
05
14
b1 s
0|
1-
#53
0'
0S
#54
1'
1S
1u
b11 t
#55
0'
0S
#56
1'
1S
b11 s
0u
#57
0'
0S
#58
1'
1S
1|
1y
1/
#59
0'
0S
#60
1'
1S
1,
1q
b1 t
#61
0'
0S
#62
1'
1S
0,
0q
b1 s
b10101 r
1x
b11 t
1.
b1 t
#63
0'
0S
#64
1'
1S
1v
0x
0y
0.
0/
b0 t
#65
0'
0S
#66
1'
1S
b0 s
b111 z
0v
0-
b1 t
#67
0'
0S
#68
1'
1S
b11 K
b1101011100010111010000011011100 )
1n
1g
1e
1d
1c
0b
1]
1Y
0X
1W
1V
1H
1F
1E
1D
0C
1>
1:
09
18
17
15
b1 s
0|
1-
#69
0'
0S
#70
1'
1S
1u
b11 t
#71
0'
0S
#72
1'
1S
b11 s
0u
#73
0'
0S
#74
1'
1S
1|
1y
1/
#75
0'
0S
#76
1'
1S
1,
1q
b1 t
#77
0'
0S
#78
1'
1S
0,
0q
b1 s
b1010101 r
1x
b11 t
1.
b1 t
#79
0'
0S
#80
1'
1S
1v
0x
0y
0.
0/
b0 t
#81
0'
0S
#82
1'
1S
b0 s
b1111 z
0v
0-
b1 t
#83
0'
0S
#84
1'
1S
b100 K
b10001111001111111101000100111000 )
0n
0m
1l
1h
0g
1f
1b
1`
1_
0]
1Z
0W
0V
1U
1I
0H
1G
1C
1A
1@
0>
1;
08
07
16
05
04
13
b1 s
0|
1-
#85
0'
0S
#86
1'
1S
1u
b11 t
#87
0'
0S
#88
1'
1S
b11 s
0u
#89
0'
0S
#90
1'
1S
1|
1y
1/
#91
0'
0S
#92
1'
1S
1,
1q
b1 t
#93
0'
0S
#94
1'
1S
0,
0q
b1 s
b101010101 r
1x
b11 t
1.
b1 t
#95
0'
0S
#96
1'
1S
1v
0x
0y
0.
0/
b0 t
#97
0'
0S
#98
1'
1S
b0 s
b11111 z
0v
0-
b1 t
#99
0'
0S
#100
1'
1S
b101 K
b1100010101011100011000101110100 )
1n
1g
0f
0e
0d
0`
1]
0\
0Z
0Y
1W
1V
0U
1H
0G
0F
0E
0A
1>
0=
0;
0:
18
17
06
15
b1 s
0|
1-
#101
0'
0S
#102
1'
1S
1u
b11 t
#103
0'
0S
#104
1'
1S
b11 s
0u
#105
0'
0S
#106
1'
1S
1|
1y
1/
#107
0'
0S
#108
1'
1S
1,
1q
b1 t
#109
0'
0S
#110
1'
1S
0,
0q
b1 s
b10101010101 r
1x
b11 t
1.
b1 t
#111
0'
0S
#112
1'
1S
1v
0x
0y
0.
0/
b0 t
#113
0'
0S
#114
1'
1S
b0 s
b111111 z
0v
0-
b1 t
#115
0'
0S
#116
1'
1S
b110 K
b11000011110000001011000110110100 )
0n
1m
1e
0c
0b
0a
0_
1^
1\
0W
1U
1F
0D
0C
0B
0@
1?
1=
08
16
05
14
b1 s
0|
1-
#117
0'
0S
#118
1'
1S
1u
b11 t
#119
0'
0S
#120
1'
1S
b11 s
0u
#121
0'
0S
#122
1'
1S
1|
1y
1/
#123
0'
0S
#124
1'
1S
1,
1q
b1 t
#125
0'
0S
#126
1'
1S
0,
0q
b1 s
b1010101010101 r
1x
b11 t
1.
b1 t
#127
0'
0S
#128
1'
1S
1v
0x
0y
0.
0/
b0 t
#129
0'
0S
#130
1'
1S
b0 s
b1111111 z
0v
0-
b1 t
#131
0'
0S
#132
1'
1S
b111 K
b11101101001101000000000111100000 )
1n
0h
0g
0e
1b
1`
1_
0^
0]
0[
1Z
1Y
1W
0I
0H
0F
1C
1A
1@
0?
0>
0<
1;
1:
18
15
b1 s
0|
1-
#133
0'
0S
#134
1'
1S
1u
b11 t
#135
0'
0S
#136
1'
1S
b11 s
0u
#137
0'
0S
#138
1'
1S
1|
1y
1/
#139
0'
0S
#140
1'
1S
1,
1q
b1 t
#141
0'
0S
#142
1'
1S
0,
0q
b1 s
b101010101010101 r
1x
b11 t
1.
b1 t
#143
0'
0S
#144
1'
1S
1v
0x
0y
0.
0/
b0 t
#145
0'
0S
#146
1'
1S
b0 s
b11111111 z
0v
0-
b1 t
#147
0'
0S
#148
1'
1S
b1000 K
b10100011101010001011001000010000 )
0n
0m
0l
1k
1h
1g
1e
0b
1a
0`
1]
1[
0Z
0Y
0V
1I
1H
1F
0C
1B
0A
1>
1<
0;
0:
07
05
04
03
12
b1 s
0|
1-
#149
0'
0S
#150
1'
1S
1u
b11 t
#151
0'
0S
#152
1'
1S
b11 s
0u
#153
0'
0S
#154
1'
1S
1|
1y
1/
#155
0'
0S
#156
1'
1S
1,
1q
b1 t
#157
0'
0S
#158
1'
1S
0,
0q
b1 s
b10101010101010101 r
1x
b11 t
1.
b1 t
#159
0'
0S
#160
1'
1S
1v
0x
0y
0.
0/
b0 t
#161
0'
0S
#162
1'
1S
b0 s
b111111111 z
0v
0-
b1 t
#163
0'
0S
#164
1'
1S
b1001 K
b10011000011000001001001001101100 )
1n
0g
0a
1^
0]
0\
0[
1Y
1X
0W
0H
0B
1?
0>
0=
0<
1:
19
08
15
b1 s
0|
1-
#165
0'
0S
#166
1'
1S
1u
b11 t
#167
0'
0S
#168
1'
1S
b11 s
0u
#169
0'
0S
#170
1'
1S
1|
1y
1/
#171
0'
0S
#172
1'
1S
1,
1q
b1 t
#173
0'
0S
#174
1'
1S
0,
0q
b1 s
b1010101010101010101 r
1x
b11 t
1.
b1 t
#175
0'
0S
#176
1'
1S
1v
0x
0y
0.
0/
b0 t
#177
0'
0S
#178
1'
1S
b0 s
b1111111111 z
0v
0-
b1 t
#179
0'
0S
#180
1'
1S
b1010 K
b10111010110111000100001010001000 )
0n
1m
0h
1f
0e
1b
1a
1`
0_
1]
1[
1W
0I
1G
0F
1C
1B
1A
0@
1>
1<
18
05
14
b1 s
0|
1-
#181
0'
0S
#182
1'
1S
1u
b11 t
#183
0'
0S
#184
1'
1S
b11 s
0u
#185
0'
0S
#186
1'
1S
1|
1y
1/
#187
0'
0S
#188
1'
1S
1,
1q
b1 t
#189
0'
0S
#190
1'
1S
0,
0q
b1 s
b101010101010101010101 r
1x
b11 t
1.
b1 t
#191
0'
0S
#192
1'
1S
1v
0x
0y
0.
0/
b0 t
#193
0'
0S
#194
1'
1S
b0 s
b11111111111 z
0v
0-
b1 t
#195
0'
0S
#196
1'
1S
b1011 K
b11111110000011000001001011111100 )
1n
1h
0f
0`
0^
0]
1Z
1V
1I
0G
0A
0?
0>
1;
17
15
b1 s
0|
1-
#197
0'
0S
#198
1'
1S
1u
b11 t
#199
0'
0S
#200
1'
1S
b11 s
0u
#201
0'
0S
#202
1'
1S
1|
1y
1/
#203
0'
0S
#204
1'
1S
1,
1q
b1 t
#205
0'
0S
#206
1'
1S
0,
0q
b1 s
b10101010101010101010101 r
1x
b11 t
1.
b1 t
#207
0'
0S
#208
1'
1S
1v
0x
0y
0.
0/
b0 t
#209
0'
0S
#210
1'
1S
b0 s
b111111111111 z
0v
0-
b1 t
#211
0'
0S
#212
1'
1S
b1100 K
b10100100000001111001001100011100 )
0n
0m
1l
1e
1d
1c
0a
0[
0Y
0X
0V
1F
1E
1D
0B
0<
0:
09
07
05
04
13
b1 s
0|
1-
#213
0'
0S
#214
1'
1S
1u
b11 t
#215
0'
0S
#216
1'
1S
b11 s
0u
#217
0'
0S
#218
1'
1S
1|
1y
1/
#219
0'
0S
#220
1'
1S
1,
1q
b1 t
#221
0'
0S
#222
1'
1S
0,
0q
b1 s
b1010101010101010101010101 r
1x
b11 t
1.
b1 t
#223
0'
0S
#224
1'
1S
1v
0x
0y
0.
0/
b0 t
#225
0'
0S
#226
1'
1S
b0 s
b1111111111111 z
0v
0-
b1 t
#227
0'
0S
#228
1'
1S
b1101 K
b1101011101001100101001101101100 )
1n
1f
0e
0d
1_
1]
1\
1[
0Z
1Y
1V
0U
1G
0F
0E
1@
1>
1=
1<
0;
1:
17
06
15
b1 s
0|
1-
#229
0'
0S
#230
1'
1S
1u
b11 t
#231
0'
0S
#232
1'
1S
b11 s
0u
#233
0'
0S
#234
1'
1S
1|
1y
1/
#235
0'
0S
#236
1'
1S
1,
1q
b1 t
#237
0'
0S
#238
1'
1S
0,
0q
b1 s
b101010101010101010101010101 r
1x
b11 t
1.
b1 t
#239
0'
0S
#240
1'
1S
1v
0x
0y
0.
0/
b0 t
#241
0'
0S
#242
1'
1S
b0 s
b11111111111111 z
0v
0-
b1 t
#243
0'
0S
#244
1'
1S
b1110 K
b11101000011010010001110110100 )
0n
1m
0h
1g
0f
1d
0c
1a
0_
0]
0[
1Z
1X
0W
0V
0I
1H
0G
1E
0D
1B
0@
0>
0<
1;
19
08
07
05
14
b1 s
0|
1-
#245
0'
0S
#246
1'
1S
1u
b11 t
#247
0'
0S
#248
1'
1S
b11 s
0u
#249
0'
0S
#250
1'
1S
1|
1y
1/
#251
0'
0S
#252
1'
1S
1,
1q
b1 t
#253
0'
0S
#254
1'
1S
0,
0q
b1 s
b10101010101010101010101010101 r
1x
b11 t
1.
b1 t
#255
0'
0S
#256
1'
1S
1v
0x
0y
0.
0/
b0 t
#257
0'
0S
#258
1'
1S
b0 s
b111111111111111 z
0v
0-
b1 t
#259
0'
0S
#260
1'
1S
b1111 K
b1 O
b11110 K
b111100110100100111011110100000 )
1j
1h
1f
0d
1c
0b
0a
1`
1^
1]
0\
1W
1I
1G
0E
1D
0C
0B
1A
1?
1>
0=
18
11
b1 s
0|
1-
#261
0'
0S
#262
1'
1S
1u
b11 t
#263
0'
0S
#264
1'
1S
b11 s
0u
#265
0'
0S
#266
1'
1S
1|
1y
1/
#267
0'
0S
#268
1'
1S
1,
1q
b1 t
#269
0'
0S
#270
1'
1S
0,
0q
b1 s
b1000000000000000000000000000000010101010101010101010101010101 r
1x
b11 t
1.
b1 t
#271
0'
0S
#272
1'
1S
1v
0x
0y
0.
0/
b0 t
#273
0'
0S
#274
1'
1S
b0 s
b1000000000000000111111111111111 z
0v
0-
b1 t
#275
0'
0S
#276
1'
1S
b11111 K
b100001010010000011011111111000 )
1n
0f
0c
1a
0`
0]
1\
0Z
0Y
0X
0G
0D
1B
0A
0>
1=
0;
0:
09
15
b1 s
0|
1-
#277
0'
0S
#278
1'
1S
1u
b11 t
#279
0'
0S
#280
1'
1S
b11 s
0u
#281
0'
0S
#282
1'
1S
1|
1y
1/
#283
0'
0S
#284
1'
1S
1,
1q
b1 t
#285
0'
0S
#286
1'
1S
0,
0q
b1 s
b101000000000000000000000000000000010101010101010101010101010101 r
1x
b11 t
1.
b1 t
#287
0'
0S
#288
1'
1S
1v
0x
0y
0.
0/
b0 t
#289
0'
0S
#290
1'
1S
b0 s
b11000000000000000111111111111111 z
0v
0-
b1 t
#291
0'
0S
#292
1'
1S
b100000 K
b11111101010111001011000000011100 )
0n
0m
0l
0k
0j
1e
1b
1`
1Z
1Y
1X
1V
1U
1F
1C
1A
1;
1:
19
17
16
05
04
03
02
01
b1 s
0|
1-
#293
0'
0S
#294
1'
1S
1{
1u
10
b11 t
#295
0'
0S
#296
1'
1S
b11 s
0u
#297
0'
0S
#298
1'
1S
1|
1y
1/
#299
0'
0S
#300
1'
1S
1,
1q
b1 t
#301
0'
0S
#302
1'
1S
0,
0q
b1 s
b101000000000000000000000000000000010101010101010101010101010111 r
1x
b11 t
1.
b1 t
#303
0'
0S
#304
1'
1S
1v
0x
0y
0.
0/
b0 t
#305
0'
0S
#306
1'
1S
b0 s
b11000000000000000111111111111110 z
0v
0-
b1 t
#307
0'
0S
#308
1'
1S
b100001 K
b111001001000110001000001100100 )
1n
0g
0e
1d
1c
0b
0a
0`
1_
0^
0Z
0V
0U
0H
0F
1E
1D
0C
0B
0A
1@
0?
0;
07
06
15
b1 s
0|
1-
#309
0'
0S
#310
1'
1S
1u
b11 t
#311
0'
0S
#312
1'
1S
b11 s
0u
#313
0'
0S
#314
1'
1S
1|
1y
1/
#315
0'
0S
#316
1'
1S
1,
1q
b1 t
#317
0'
0S
#318
1'
1S
0,
0q
b1 s
b101000000000000000000000000000000010101010101010101010101011111 r
1x
b11 t
1.
b1 t
#319
0'
0S
#320
1'
1S
1v
0x
0y
0.
0/
b0 t
#321
0'
0S
#322
1'
1S
b0 s
b11000000000000000111111111111100 z
0v
0-
b1 t
#323
0'
0S
#324
1'
1S
b100010 K
b110000000010110110000010110000 )
0n
1m
0h
1g
1f
1a
0_
0\
0Y
0I
1H
1G
1B
0@
0=
0:
05
14
b1 s
0|
1-
#325
0'
0S
#326
1'
1S
1u
b11 t
#327
0'
0S
#328
1'
1S
b11 s
0u
#329
0'
0S
#330
1'
1S
1|
1y
1/
#331
0'
0S
#332
1'
1S
1,
1q
b1 t
#333
0'
0S
#334
1'
1S
0,
0q
b1 s
b101000000000000000000000000000000010101010101010101010101111111 r
1x
b11 t
1.
b1 t
#335
0'
0S
#336
1'
1S
1v
0x
0y
0.
0/
b0 t
#337
0'
0S
#338
1'
1S
b0 s
b11000000000000000111111111111000 z
0v
0-
b1 t
#339
0'
0S
#340
1'
1S
b100011 K
b11111011011111010010000011110000 )
1n
0f
0c
1b
1`
1_
1^
1\
1[
1Y
1V
1U
0G
0D
1C
1A
1@
1?
1=
1<
1:
17
16
15
b1 s
0|
1-
#341
0'
0S
#342
1'
1S
1u
b11 t
#343
0'
0S
#344
1'
1S
b11 s
0u
#345
0'
0S
#346
1'
1S
1|
1y
1/
#347
0'
0S
#348
1'
1S
1,
1q
b1 t
#349
0'
0S
#350
1'
1S
0,
0q
b1 s
b101000000000000000000000000000000010101010101010101010111111111 r
1x
b11 t
1.
b1 t
#351
0'
0S
#352
1'
1S
1v
0x
0y
0.
0/
b0 t
#353
0'
0S
#354
1'
1S
b0 s
b11000000000000000111111111110000 z
0v
0-
b1 t
#355
0'
0S
#356
1'
1S
b100100 K
b11001110010000101000000100100000 )
0n
0m
1l
0g
1e
0d
1c
0b
0a
0`
0_
0\
1Z
0X
0W
0H
1F
0E
1D
0C
0B
0A
0@
0=
1;
09
08
05
04
13
b1 s
0|
1-
#357
0'
0S
#358
1'
1S
1u
b11 t
#359
0'
0S
#360
1'
1S
b11 s
0u
#361
0'
0S
#362
1'
1S
1|
1y
1/
#363
0'
0S
#364
1'
1S
1,
1q
b1 t
#365
0'
0S
#366
1'
1S
0,
0q
b1 s
b101000000000000000000000000000000010101010101010101011111111111 r
1x
b11 t
1.
b1 t
#367
0'
0S
#368
1'
1S
1v
0x
0y
0.
0/
b0 t
#369
0'
0S
#370
1'
1S
b0 s
b11000000000000000111111111100000 z
0v
0-
b1 t
#371
0'
0S
#372
1'
1S
b100101 K
b10111011001011100100000101000000 )
1n
1f
0e
1b
1a
1_
0^
1\
0Z
1X
1W
0V
1G
0F
1C
1B
1@
0?
1=
0;
19
18
07
15
b1 s
0|
1-
#373
0'
0S
#374
1'
1S
1u
b11 t
#375
0'
0S
#376
1'
1S
b11 s
0u
#377
0'
0S
#378
1'
1S
1|
1y
1/
#379
0'
0S
#380
1'
1S
1,
1q
b1 t
